ClientName,Country,Region,Gender,Age,NetWorth,FXBullion,CashEquivalents,Equity,FixedIncomeBonds,Funds,Loan,ResidentialMortgage,CreditCard
Pierre Castel & family,Russia,Europe,F,90,2106.14,24.02,333.33,580.82,1.5,2394.13,313.02,913.3,1.35
Charles Butt & family,Hong Kong,Asia,M,79,1237.19,212.15,224.4,894.92,160.81,339.91,30.95,563.8,0.27
Charles Cadogan & family,Spain,Europe,F,80,1330.35,204.6,717.34,58.2,83.72,1538.03,893.36,377.57,0.6
Sun Hongbin,Japan,Asia,F,54,1723.87,14.98,121.62,113.31,21.17,1580.48,70.76,56.59,0.34
Herbert Louis,Germany,Europe,M,89,1382.9,377.19,285.1,517.59,223.2,979.99,463.35,535.32,1.5
Josephine Louis & family,Italy,Europe,M,87,2445.18,298.99,168.81,21.72,1360.19,2041.05,66.22,1378.21,1.15
Vinod & Anil Rai Gupta & family,Indonesia,Asia,F,71,749.01,534.46,11.41,281.7,35.98,537.9,391.51,260.91,0.03
Silas Chou,South Korea,Asia,M,71,533.52,45.85,211.28,449.9,14.95,112.57,130.58,169.82,0.63
Lee Man Tat,Indonesia,Asia,M,88,1314.76,5.99,92.43,705.62,609.24,818.91,772.28,141.94,3.21
Dieter Schaub,Hong Kong,Asia,F,79,1599.25,504.03,16.92,234.21,976.34,220.69,18.27,334.19,0.48
Jean Burelle,Brazil,Americas,F,78,355.29,101.13,4.75,143.12,80.09,236.51,45.73,164.42,0.17
Laurent Burelle,Indonesia,Asia,M,67,499.6,189.95,184.04,152.02,6.57,35.19,58.44,9.44,0.3
Wang Muqing & family,France,Europe,M,66,1718.62,224.76,629.69,10.72,205.02,1440.83,361.7,430.63,0.07
Michael Klein,Japan,Asia,M,66,2334.82,587.85,46.24,458.43,34.79,1289.31,15.87,65.07,0.86
Elisabeth Badinter & family,Japan,Asia,M,73,814.6,68.29,2.47,190.33,118.41,1327.24,319.03,572.64,0.47
Craig Newmark,United Kingdom,Europe,M,64,1973.85,116.78,1408.15,931.76,219.32,323.61,496.29,527.86,1.63
Koo Bon-Neung,India,Asia,M,68,546.47,12.17,222.93,134.33,68.73,333.77,4.59,220.83,0.04
Liu Yiqian,Brazil,Americas,M,53,2633.29,914.46,93.81,333.54,1894.24,814.31,1145.09,270.08,1.91
Bill Adderley & family,United States,Americas,M,69,2120.95,392.53,617.81,365.02,17.68,859.84,115.25,15.46,1.23
Bachtiar Karim & family,Spain,Europe,F,60,1481.46,108.82,41.71,104.91,162.63,1348.64,283.12,1.86,0.26
Chen Tianqiao,United Kingdom,Europe,M,44,2874.87,1893.23,207.24,821.26,932.54,1597.99,1999.92,576.86,0.61
Ou Zonghong,South Korea,Asia,M,47,1063.33,6.65,124.06,392.08,325.64,829.91,127.5,487.16,0.35
Jonathan Harmsworth,Spain,Europe,F,49,349.23,19.62,18.94,64.57,48.84,372.12,32.87,141.3,0.68
Yuan Fugen & family,South Korea,Asia,F,66,739.71,118.32,5.15,318.41,194.12,222.04,20.75,96.75,0.83
Amit Burman,India,Asia,M,48,857.26,614.09,147.99,23.81,357.98,145.73,64.99,365.72,1.64
Jacques Merceron-Vicat & family,Brazil,Americas,F,79,660.07,19.29,240.98,61.05,170.11,249.83,43.86,37.01,0.32
Cai Xiaoru,Singapore,Asia,F,37,2435.3,735.28,31.43,1009.8,879.61,486.84,428.5,275.47,3.68
Alberto Bombassei,Indonesia,Asia,F,76,2893.35,517.29,13.2,81.49,1283.93,2746.53,1492.39,255.79,0.92
Chen Jinsong & family,Indonesia,Asia,M,53,857.28,66.61,221.41,364.21,75.32,864.75,452.88,275.75,6.4
Zhu Yicai,France,Europe,M,53,2464.12,676.75,33.59,1962.24,19.91,1073.96,1101.9,198.95,1.48
Andreas Pohl,Russia,Europe,M,53,2040.04,2.92,440.33,525.31,762.91,706.21,384.63,11.37,1.63
Reinfried Pohl Jr,China,Asia,F,57,919.62,165.61,564.32,233.43,72.83,116.69,204.81,27.22,1.24
Alexander Samwer,United States,Americas,F,42,215.38,49.82,1.71,55.42,1.72,143.64,6.02,30.09,0.83
Marc Samwer,United Kingdom,Europe,M,46,1649.53,992.54,899.71,2.63,238.03,474.47,35.12,922.52,0.2
Oliver Samwer,India,Asia,F,44,2844.73,741.83,727.67,1190.14,60.78,2268.27,929.77,1213.34,0.86
Lv Yongxiang,India,Asia,M,67,2205.62,134.63,1007.01,28.44,1846.64,875.98,278.94,1408.06,0.08
Subhash Runwal,Spain,Europe,M,74,441.7,125.29,85.23,248.8,48.55,182.63,190.03,58.5,0.27
Anton Kathrein Jr,United Kingdom,Europe,F,32,1304.78,573.87,79.1,106.34,271.12,436.17,0,161.68,0.15
Summerfield Johnston Jr,Spain,Europe,M,85,2548.45,418.56,56.69,216.76,322.47,1983.49,278.66,167.2,3.66
Lu Yonghua & family,Japan,Asia,M,54,2871.41,313.9,693.29,544.48,88.34,2231.13,412.59,586.54,0.61
Anu Aga,United States,Americas,M,75,590.62,112.3,62.52,291.25,123.62,307.71,34.11,271.81,0.85
Wan Lianbu,France,Europe,M,52,2208.49,212.11,565.96,51.4,1608.19,734.36,918.18,45.32,0.02
Andrei Filatov,India,Asia,F,45,2780.59,155.67,873.32,414.18,2241.3,243.23,1089.56,56.96,0.59
Konstantin Nikolaev,Italy,Europe,F,46,503.3,278.79,179.26,8.96,14.4,167.08,76.79,68.03,0.37
Nikita Mishin,China,Asia,M,46,1989.98,655.32,804.45,93.79,67.08,2131.47,433.93,1327.34,0.86
You Xiaoping & family,Italy,Europe,F,59,2275.15,1059.65,44.61,928.95,1057.33,1862.79,1752.32,923.17,2.69
Bill Gates,France,Europe,M,61,2195.46,484.5,613.03,1788.18,207.91,132.36,573.72,456.38,0.43
Warren Buffett,United States,Americas,M,87,2628.35,132.41,544.02,834.38,706.45,1137.87,665.21,58.57,3.02
Jeff Bezos,Singapore,Asia,M,53,335.32,4.64,126.75,73.91,42.5,184.06,87.66,6.02,2.86
Amancio Ortega,Russia,Europe,M,81,833.54,54.95,286.36,225.58,334.4,460.12,321.33,205.9,0.66
Mark Zuckerberg,Spain,Europe,F,33,2220.73,10.45,14.11,1041.75,42.34,2604.94,1048.41,444.35,0.1
Larry Ellison,Russia,Europe,F,73,2340.64,823.39,474.53,73.22,103.03,1648.66,248.16,532.58,1.45
Charles Koch,Italy,Europe,M,81,58.65,6.8,1.38,20.55,10.94,67.6,21.61,25.51,1.5
David Koch,Brazil,Americas,F,77,1051.76,17.14,330.9,13.22,22.99,710.77,29.51,12.89,0.86
Michael Bloomberg,Italy,Europe,F,75,2270.37,165.66,351.84,1456.4,1278.86,374.08,1224.01,132.43,0.04
Bernard Arnault,Italy,Europe,M,68,603.27,350.93,4.77,81.05,163.74,165.42,69.69,91.08,1.87
Larry Page,Singapore,Asia,F,44,920.27,294.5,43.33,214.71,160.46,753.1,2.38,540.52,2.93
Sergey Brin,Spain,Europe,F,44,976.1,161.22,340.5,307.85,222.49,364.82,126.55,293.21,1.01
Liliane Bettencourt,Spain,Europe,F,94,458.67,138.9,270.43,244.5,42.54,67.14,13.33,291.15,0.36
S. Robson Walton,India,Asia,M,72,1125.93,207.61,103.06,185.5,15.14,736.69,116.3,5.48,0.3
Jim Walton,Japan,Asia,F,69,1035.7,397.34,239.67,557.49,424.07,287.36,261.49,608.38,0.37
Alice Walton,United States,Americas,M,67,2358.38,1350.94,26.82,93.74,1320.93,1221.3,1365.38,288.18,1.78
Wang Jianlin,China,Asia,M,62,192.34,9.36,37.62,9.02,133.41,17.85,1.48,12.94,0.51
Li Ka-shing,India,Asia,M,89,2254.3,532.47,73.38,90.73,103.41,3378.57,224.01,1699.63,0.61
Sheldon Adelson,Russia,Europe,M,84,1668.24,72.3,277.3,157,2.18,2364.48,23.28,1179.02,2.72
Steve Ballmer,Japan,Asia,M,61,1303.89,1104.94,135.5,108.22,0.84,534.6,493.47,83.93,2.81
Jorge Paulo Lemann,Singapore,Asia,F,78,210.19,14.2,104.05,146.27,27.29,30.04,28.26,83.18,0.22
Jack Ma,United Kingdom,Europe,M,52,2596.88,440.33,121.9,482.12,14.67,3828.41,1996.82,293.34,0.39
Jacqueline Mars,Italy,Europe,M,77,2850.01,1093.25,252.3,607.63,1254.17,1197.94,649.74,904.96,0.58
John Mars,Italy,Europe,F,81,1866.8,861.21,148.29,28,725.24,2188.47,1375.02,708.7,0.69
Phil Knight,Germany,Europe,M,79,2258.47,311.76,154.87,78.98,166.62,1824.55,230.36,47.69,0.26
Maria Franca Fissolo,China,Asia,M,82,2922.57,185.32,1880.65,145.05,744.61,537.64,18.03,550.32,2.35
George Soros,Russia,Europe,F,87,2569.01,1524.33,153.55,116.74,1427.62,507.02,752.37,407.58,0.29
Ma Huateng,Russia,Europe,M,45,86.14,4.27,49.27,16.51,7.1,102.12,23.31,65.47,4.36
Lee Shau Kee,Spain,Europe,M,89,1862.89,325.51,612.13,420.06,79.68,2681.1,1627.15,627.83,0.61
Mukesh Ambani,Spain,Europe,M,60,2616.77,128.31,164.78,68.61,452.67,3209.97,886.83,519.64,1.09
Masayoshi Son,Hong Kong,Asia,M,60,2421.84,787.23,896.35,360,877.04,572.01,900.23,169.97,0.59
Georg Schaeffler,United States,Americas,F,52,2126.64,489.43,1443.24,654.62,102.89,166.48,580.45,148.5,1.07
Joseph Safra,Indonesia,Asia,M,78,2596.84,1511.43,1071.3,893.96,137.22,129.8,565.75,577.81,3.31
Susanne Klatten,Singapore,Asia,M,55,2126.11,12.58,485.66,106.34,167.23,2286.87,43.1,889.42,0.05
Michael Dell,India,Asia,M,52,1288.39,12.32,156,160.84,43.47,1071.92,106.09,48.75,1.33
Laurene Powell Jobs,Hong Kong,Asia,M,53,411.49,22.31,22.62,98.01,43.16,676.77,290.83,159.27,1.28
Len Blavatnik,United States,Americas,M,60,987.71,294.48,274.02,134.8,162.77,402.43,113.19,167.55,0.06
Paul Allen,Italy,Europe,M,64,1248.23,791.32,212.49,486.45,156.74,499.41,11.93,885.29,0.96
Theo Albrecht Jr.,Japan,Asia,M,66,275.92,4.18,78.27,70.3,1.84,291.02,164.18,2.55,2.97
Leonid Mikhelson,South Korea,Asia,M,62,2558.79,128.49,30.8,754.17,189.3,2585.57,611.66,511.3,6.57
Stefan Quandt,Singapore,Asia,M,51,2974.23,345.89,176.42,352.88,1553.43,2065.02,3.34,1514.2,1.87
Charles Ergen,Japan,Asia,F,64,545.89,32.38,102.19,204.94,242.57,407.78,326.84,116.36,0.78
James Simons,Japan,Asia,M,79,2421.94,1260.99,641.87,41.06,500.05,349.49,51.99,318.9,0.64
Leonardo Del Vecchio,Indonesia,Asia,M,82,2400.08,528.77,80.1,867.3,965.29,1305.55,441.92,904.25,0.75
Alexey Mordashov,Spain,Europe,M,51,2783.32,205.08,1743.9,621.77,6.11,1183.25,875.94,100.63,0.21
William Ding,South Korea,Asia,F,45,1634.14,307.79,148.5,505.08,881.07,387.38,120.89,474.36,0.44
Dieter Schwarz,Germany,Europe,F,77,1915.85,204.9,1093.86,118.51,291.79,576.91,76.05,292.31,1.76
Ray Dalio,India,Asia,F,68,2653.29,229.34,97.41,35.92,1502.23,3047.45,1095.68,1163.33,0.05
Carl Icahn,South Korea,Asia,M,81,2122.22,1452.44,188.97,143.89,403.5,885.96,476.3,476.02,0.21
Lakshmi Mittal,South Korea,Asia,M,67,2803.34,95.94,2600.78,558.13,55.55,503.68,209.96,799.59,1.19
Serge Dassault,Italy,Europe,F,92,1006.59,301.18,106.11,173.88,21.39,1602.66,452.8,744.97,0.86
Vladimir Lisin,South Korea,Asia,F,61,1839.37,1031.57,1346.39,108.9,599.71,780.22,1233.54,793.36,0.51
Gennady Timchenko,United Kingdom,Europe,M,64,307.99,75.2,59.22,1.28,141.12,173.92,94.05,47.87,0.84
Wang Wei,United States,Americas,M,46,2177.98,742.74,70.93,563.33,384.52,999.66,504.23,78.73,0.25
Tadashi Yanai,France,Europe,M,68,935.92,268.78,0.56,401.18,40.64,679.64,139.25,311.95,3.67
Francois Pinault,Germany,Europe,M,81,2436.87,4.49,0.45,119.38,173.14,2485.88,245.66,100.12,0.68
David & Simon Reuben,Germany,Europe,M,74,1450.49,168.13,23.84,444.44,209.17,999.87,223.69,170.4,0.87
Alisher Usmanov,Brazil,Americas,M,63,1739.51,9.44,627.9,343.44,31.76,2037.36,267.2,1042.34,0.85
Donald Bren,Singapore,Asia,M,85,1654.35,818.23,202.78,1014.97,403.85,94.33,836.92,41.85,1.04
Lee Kun-Hee,Hong Kong,Asia,M,75,884.31,297.27,7.54,294.3,91.75,718.75,460.86,63.52,0.91
Gina Rinehart,United States,Americas,F,63,97.83,46.36,13.22,6.56,3.41,52.51,0.06,22.24,1.94
Joseph Lau,United States,Americas,M,66,2983.03,488.16,12.37,1399.71,1758.77,196.08,555.04,314.33,2.69
Azim Premji,Italy,Europe,M,72,399.97,14.9,72.46,144.55,202.84,242.68,125.05,150.47,1.94
Marcel Herrmann Telles,Spain,Europe,M,67,2353.25,267.5,79.52,137.09,801.89,3283.92,259,1956.77,0.91
Vagit Alekperov,Japan,Asia,M,67,462.47,394.12,128.61,44.2,145.4,15.26,55.04,209.09,0.99
Abigail Johnson,Hong Kong,Asia,F,55,1307.16,126.19,445.43,104.72,54.86,771.57,6.64,188.02,0.94
Mikhail Fridman,France,Europe,M,53,941.8,19.66,105.11,24.8,115.54,974.48,135.31,160.9,1.59
Vladimir Potanin,Japan,Asia,F,56,1061.34,71.77,543.49,101.33,98.88,1104.47,726.54,128.35,3.71
Wang Wenyin,United States,Americas,M,49,44.47,4.19,1.44,9.02,2.95,41.92,10.46,2.17,2.42
Elon Musk,Russia,Europe,M,46,401.75,251,38.54,114.96,161.03,79.79,116.43,125.8,1.35
Stefano Pessina,United States,Americas,M,76,2466.01,155.15,176.96,203.89,834.11,1800.85,319.05,383.62,2.28
Thomas Peterffy,Singapore,Asia,F,72,1290.24,166.63,11.89,69.38,545.44,698.19,88.16,109.63,3.5
Dilip Shanghvi,United Kingdom,Europe,F,61,1182.93,16.89,698.18,207.09,202.62,466.35,96.14,311.06,0.99
Robin Li,Russia,Europe,M,48,1871.37,3.09,58.68,167.49,976.45,2035.4,557.23,809.69,2.81
Harold Hamm,Brazil,Americas,M,71,2575.66,418.14,94.75,134.05,1028.95,3496.39,1570.57,1024.69,1.37
Andrey Melnichenko,Japan,Asia,F,45,2870.62,19.56,27.9,676.2,43.64,3973.91,1491.78,377.76,1.04
Heinz Hermann Thiele,Russia,Europe,F,76,1452.31,628.2,844.2,516.75,421.07,611.34,883.35,685.24,0.66
Rupert Murdoch,France,Europe,M,86,2033.52,100.7,105.05,823.17,227.72,926.74,18.97,130.87,0.02
Patrick Drahi,South Korea,Asia,M,54,2317.57,1344.57,309.27,289.68,405.28,1866.08,1498.5,396.99,1.81
Steve Cohen,Germany,Europe,M,61,2745.71,1749.01,11.74,26.93,884.68,2319.81,1968.11,276.54,1.8
Carlos Alberto Sicupira,Germany,Europe,M,69,1805.29,534.14,807.46,145.2,539.29,2736.32,1500.74,1456.26,0.12
Ronald Perelman,China,Asia,M,74,707.56,92.6,20.97,77.11,369.78,326.08,166.22,11,1.76
Philip Anschutz,Russia,Europe,F,77,1181.7,202.41,332.62,477.13,91.85,1185.88,315.5,792.56,0.13
Klaus-Michael Kuehne,Spain,Europe,M,80,334.63,39.06,8.18,38.99,84.71,534.73,247.12,123.21,0.7
Viktor Vekselberg,United Kingdom,Europe,F,60,1017.07,370.88,133.11,267.72,508.64,68.71,43.18,288.36,0.45
Takemitsu Takizaki,Singapore,Asia,M,72,128.16,20.41,7.35,77.16,13.55,91.55,68.16,9.9,3.81
He Xiangjian,South Korea,Asia,M,75,928.22,105.06,531.64,20.2,11.83,778.69,218,300.61,0.59
Shiv Nadar,Singapore,Asia,M,72,789.87,235.81,89.78,86.45,39.8,756.8,137.58,278.74,2.44
Jim Kennedy,Japan,Asia,M,69,2198.57,442.19,482.13,15.94,8.31,1603.75,172.82,179.88,1.04
Blair Parry-Okeden,France,Europe,M,67,1108.34,5.13,116.59,410.09,155.36,1232.85,344.9,466.1,0.68
Lui Che Woo,China,Asia,M,88,329.68,53.12,157.5,14.5,53.91,371.41,243.15,77.49,0.13
Samuel Newhouse Jr.,Japan,Asia,M,89,1966.36,255.98,851.92,872.68,152.02,358.96,180.39,344.28,0.54
Donald Newhouse,Japan,Asia,F,88,1701.1,278.27,536.2,24.9,773.39,1046.28,338.8,618.65,0.49
Alain Wertheimer,Russia,Europe,M,69,125.65,53.25,34.83,31.34,38.93,103.43,68.34,66.18,1.61
Gerard Wertheimer,South Korea,Asia,M,66,1745.31,91.59,987.31,63.15,588.31,426.64,311.25,100.18,0.25
Stephen Schwarzman,Hong Kong,Asia,M,70,460.52,162.88,15.88,274.46,0.82,44.03,33.1,3.65,0.8
Emmanuel Besnier,Hong Kong,Asia,M,46,1940.15,42.8,596.1,65.75,358.76,1099.01,154.69,67.33,0.25
Lukas Walton,China,Asia,M,30,743.64,312.08,178.99,257.34,2.61,658.16,104.44,559.44,1.66
Hasso Plattner,Japan,Asia,F,73,2926.02,270.78,1016.26,289.8,237.71,2459.89,362.27,983.46,2.69
Eric Schmidt,China,Asia,M,62,313.67,4.12,0.39,45.54,198.9,225.6,50.69,110.11,0.08
David Tepper,Russia,Europe,M,59,2097.25,255.46,12.39,1626.29,429.8,1305.59,1224.12,306.05,2.11
Dustin Moskovitz,Italy,Europe,M,33,2461.48,88.84,751.04,5.51,267.09,1731.81,115.2,266.86,0.75
Peter Woo,India,Asia,M,71,1810.62,1145.82,996.44,395.04,127.62,1231.47,1126.47,958.78,0.53
Andrew Beal,France,Europe,F,64,1210.8,9.98,260.34,33.72,367.85,805.49,4.97,258.26,3.34
Hui Ka Yan,Spain,Europe,M,58,1828.79,988.94,0.87,44.19,512.79,685.51,280.7,122.67,0.14
John Menard Jr.,Japan,Asia,F,77,2576.1,304.96,1436.89,815.78,39.91,2511.45,1359.23,1171.57,2.09
Reinhold Wuerth,Spain,Europe,M,82,1493.53,178.35,415.59,12.46,69.99,884.53,47.87,19.5,0.02
Massimiliana Landini Aleotti,Japan,Asia,M,74,249.43,162.41,15.87,45.03,3.55,32.28,1.51,7.6,0.6
Kumar Birla,China,Asia,M,50,96.15,27.14,4.44,42.56,32.16,31.4,27.08,13.21,1.24
James Goodnight,South Korea,Asia,M,74,1819.1,173.41,782.56,228.38,10.79,1145.99,188.78,332.79,0.47
German Khan,India,Asia,M,55,549.67,292.26,391.03,83.03,23.51,259.45,279.11,218.81,1.7
Roman Abramovich,Spain,Europe,M,50,551.66,23.8,268.62,160.9,114.65,337.69,274.14,79.35,0.5
Yang Huiyan,Russia,Europe,F,35,2080.66,892.88,454.85,52.19,777.32,789.28,8.27,875.03,2.56
James Ratcliffe,China,Asia,F,64,1405.91,0.38,322.66,200.2,19.72,1252.72,286.18,103.3,0.29
R. Budi Hartono,China,Asia,M,76,243.46,63.04,1.48,8.42,173.99,265.38,181.06,84.93,2.86
Dietmar Hopp,Indonesia,Asia,M,77,319.77,163.31,35.7,65.6,8.11,439.9,157.32,235.17,0.36
Jan Koum,France,Europe,M,41,1631.98,476.47,799.16,85.05,796.58,758.54,1231.84,50.5,1.48
Leonard Lauder,Spain,Europe,M,80,2029.39,96.42,508.02,69.59,1394.35,1120.11,161.95,995.8,1.37
Michael Hartono,Italy,Europe,M,77,1516.32,20.77,438.23,167.53,300.61,1366.69,212.5,563.61,1.39
Mikhail Prokhorov,Russia,Europe,M,52,1666.06,519.62,535.1,106.76,788.37,1380.11,548.06,1115.27,0.57
Thomas Frist Jr.,Singapore,Asia,M,79,1687.29,904.57,1113.68,98.93,412.07,71.28,43.37,868.71,1.16
Patrick Soon-Shiong,Brazil,Americas,F,65,2447.48,576.4,198.83,1128.75,117.44,2095.98,1276.8,392.6,0.52
Harry Triguboff,United States,Americas,M,84,2538.24,472.13,179.38,921.85,1716.66,950.04,886.48,815.22,0.13
Zhang Zhidong,Russia,Europe,M,45,958.95,286.76,533.82,48.16,164.02,117.16,40.04,150.75,0.17
Yao Zhenhua,China,Asia,M,47,100.82,21.96,64.93,32.28,15.96,70.89,61.27,43.81,0.12
Viktor Rashnikov,Brazil,Americas,F,68,1697.58,154.93,1126.47,208.89,196.07,373.24,196.89,164.32,0.8
Charles Schwab,France,Europe,M,80,2990.28,508.8,769.29,116.97,1022.79,2618.64,1513.1,532.9,0.22
Shahid Khan,Japan,Asia,M,67,231.37,107.78,15.5,8.64,3.36,115.77,3.5,14.46,1.73
Xavier Niel,Italy,Europe,M,50,1003.92,89.52,6.1,73,13.08,922.23,82.43,16.75,0.82
Micky Arison,Germany,Europe,M,68,2699.49,1945.16,633.04,311.47,486.3,856.84,189.85,1343.29,0.18
Cyrus Poonawalla,Russia,Europe,M,76,866.45,97.09,633.83,53.53,3.76,605.03,371.44,152.44,2.92
James Chambers,India,Asia,F,60,702.18,283.29,9.32,154.4,243.4,441.51,134.59,295.01,0.15
Katharine Rayner,Spain,Europe,M,72,1280.78,396.22,64.25,62.92,604.48,1140.53,58.55,928.7,0.37
Margaretta Taylor,Singapore,Asia,M,75,287.57,78.94,167.44,69.72,44.58,206.38,118.83,158.88,1.77
Uday Kotak,India,Asia,M,58,2881.07,402.32,27.7,29.51,144.9,4369.85,1162.57,929.24,1.4
Pierre Omidyar,Japan,Asia,M,50,1014.12,98.84,56.26,542.48,67.62,1188.65,240.19,699.05,0.49
Herbert Kohler Jr.,Spain,Europe,F,78,1800.4,1044.06,959.6,170.67,277.85,1519.13,624.48,1545.55,0.87
Ken Griffin,Singapore,Asia,F,48,859.1,6.93,33.7,159.07,101.78,807.38,60,188.83,0.93
Eduardo Saverin,South Korea,Asia,F,35,2910.21,572.01,1044.87,1296.44,1823.12,2257.72,2105.51,1976.53,1.92
John Paulson,Russia,Europe,M,61,875.75,100.84,82.67,63.85,368.3,564.38,271.28,32.77,0.24
George Kaiser,Brazil,Americas,M,75,1559.57,37.06,594.26,5.51,97.93,1833.84,218.74,789.5,0.78
Edward Johnson III.,Indonesia,Asia,M,87,1984.82,889.22,298.89,27.27,395.47,2685,991.64,1318.9,0.49
Liu Qiangdong,France,Europe,F,43,1591.88,8.56,429.55,314.66,31.41,2315,1494.76,12.52,0.03
Heinrich Deichmann,China,Asia,M,54,241.01,20.6,2.6,107.8,44.4,179.98,100.45,13.36,0.58
Michael Otto,Italy,Europe,F,74,95.33,3.35,11.16,1.18,37.27,88.06,17.48,28.01,0.2
John Malone,India,Asia,M,76,2360.77,1393.52,245.51,1300.16,4.09,722.88,545.06,759.54,0.78
Eli Broad,Singapore,Asia,M,84,2280.76,235.53,1450.05,68.05,108.48,742.84,316.88,6.08,1.23
Aloys Wobben,Spain,Europe,M,65,2747.72,715.59,904.99,794.92,14.74,3766.51,1118.05,2329.46,1.53
Walter Droege,India,Asia,M,64,497.44,241.05,77.43,258.97,4.67,153.13,211.27,26.04,0.5
Sunil Mittal,Japan,Asia,F,59,1396.84,183.45,93.77,360.4,640.95,321.63,183.11,20.16,0.08
Stanley Kroenke,Japan,Asia,M,70,130.51,39.38,20.65,3.71,34.22,196.23,61.87,97.11,4.71
Zhou Qunfei,Singapore,Asia,F,47,1294.33,14.96,107.49,852.1,122.94,747.82,260.71,288.87,1.38
August von Finck,Hong Kong,Asia,F,87,2999.42,8.16,138.64,1233.19,1409.66,550.53,161.52,178.33,0.91
Carl Cook,Singapore,Asia,F,55,649.12,7.07,284.68,525.96,127.95,95.15,85.95,305.37,0.37
Stephen Ross,Italy,Europe,M,77,2424.5,171.65,4.46,1036.25,454.45,1476.85,60.63,657.77,0.76
Walter Kwok,United Kingdom,Europe,M,66,881.08,1.35,92.9,572.95,44.1,538.5,208.95,159.19,0.58
David Geffen,Italy,Europe,M,74,547.93,318.87,78.91,170.95,1.7,276.3,67.22,231.44,0.14
Dmitry Rybolovlev,Indonesia,Asia,M,50,210.16,65.75,93.88,25.14,26.9,61.25,15.26,45.43,2.07
Gordon Moore,Italy,Europe,F,88,146.81,46.83,17.67,3.39,76.05,113.99,7.82,101.25,2.06
Zong Qinghou,France,Europe,M,71,2537.42,953.6,286.04,360.71,1370.43,1762.48,46.45,2148.58,0.8
Alexei Kuzmichev,United States,Americas,F,54,1798.76,76.97,794.64,1314.13,123.66,1134.4,335.43,1309.4,0.2
Richard Kinder,Singapore,Asia,F,72,1520.84,26.03,280.97,586.07,1256.26,710.74,809.79,527.67,1.77
Silvio Berlusconi,Hong Kong,Asia,M,80,1393.63,195.34,442.5,54.54,1.55,1440.86,517.2,220.21,3.75
Andrei Skoch,Germany,Europe,M,51,797.6,90.95,24.46,703.47,271.6,39.6,272.04,59.48,0.95
Pauline MacMillan Keinath,Germany,Europe,M,83,2516.85,23.45,229.18,571.21,449.19,3708.86,1537.37,926.9,0.77
Sergei Galitsky,United States,Americas,M,50,613.9,44.14,189.11,174.25,91.68,578.5,359.83,103.05,0.9
Lei Jun,United States,Americas,M,47,176.03,19.28,55.51,3.26,82.04,34.95,4.66,12.7,1.65
Li Shufu,France,Europe,M,54,1717.46,551.29,206.29,9.17,34.49,1474.22,3.22,554.68,0.1
David Duffield,Spain,Europe,F,76,512.04,3.17,8.27,147.43,125.62,571.25,158.62,183.67,1.43
Sandra Ortega Mera,United States,Americas,M,49,2690.8,264.91,239.92,161.94,1238.09,4027.25,2437.71,799.24,4.36
Michael Kadoorie,Russia,Europe,F,76,1875.45,231.76,728.71,81.41,229.55,1623.18,775.05,243.75,0.36
Suh Kyung-Bae,Brazil,Americas,M,54,82.88,44.33,25.5,13.39,28.92,10.51,16.78,22.62,0.36
Zhang Shiping,Spain,Europe,M,70,2616.89,1198.5,463.92,1528.96,61.01,2251.44,1898.91,987.69,0.33
Giorgio Armani,United States,Americas,M,83,2739.81,843.61,1002.61,50.22,820.81,1463.66,120.55,1320.32,0.24
Xu Shihui,United Kingdom,Europe,F,59,681.74,337.93,15.55,118.72,282.96,336,240.71,167.81,0.9
Liu Yongxing,South Korea,Asia,F,69,432.07,4.01,12.76,111.37,89.4,298.93,76.88,5.34,2.18
Goh Cheng Liang,India,Asia,M,90,1430.07,150.24,921.29,270.29,160.14,317.6,222.4,165.85,1.24
Richard LeFrak,Indonesia,Asia,M,72,988.87,260.92,115.37,330.25,25.01,952.33,282.44,412.04,0.52
Iskander Makhmudov,Spain,Europe,M,53,1324.08,144,66.75,20.2,273.42,1114.07,64.33,229.22,0.79
Bruce Halle,South Korea,Asia,M,87,2624.73,253.75,22.73,914.69,233.02,1574.28,304.06,69,0.67
John A. Sobrato,Germany,Europe,M,78,688.9,2.18,0.19,30.72,154.36,636.04,33.15,100.75,0.69
Les Wexner,Japan,Asia,M,79,32.33,5.85,2.28,0.06,0.71,35.22,4.45,4.59,2.74
Guo Guangchang,Spain,Europe,F,50,464.98,61.99,0.36,306.95,63.27,126.33,56.03,37.66,0.23
Suleiman Kerimov,Singapore,Asia,M,51,756.46,245.48,79.24,223.73,220.79,88.67,39.54,61.09,0.82
Mikhail Gutseriev,Spain,Europe,F,59,828.71,18.72,2.06,797.23,208.75,257.75,436.3,17.78,1.72
Leonid Fedun,France,Europe,M,61,194.42,90.98,17.67,2.42,125.48,149.86,54.36,130.69,6.94
Carrie Perrodo,Spain,Europe,M,66,261.91,32.31,30.4,30.1,28.8,210.33,8.8,58.73,2.49
Travis Kalanick,Japan,Asia,F,41,2503.05,593.31,1327.93,54.34,303.37,723.56,486.19,12.71,0.57
David Green,Russia,Europe,M,75,1100.11,71.8,585.35,13.86,62.56,952.24,45.87,539.12,0.71
Robert Rowling,China,Asia,M,63,2154.47,1.36,592.74,753.98,525.54,2092.78,1026.55,785.12,0.26
Pan Zhengmin,India,Asia,M,47,1374.38,402.94,117.4,1033.28,375.47,405.58,169.62,789.24,1.44
Jay Y. Lee,France,Europe,M,49,461.17,30.95,56.99,24.1,268.42,355,246.7,26.35,1.24
Ann Walton Kroenke,Russia,Europe,M,68,2605.33,682.37,162.39,191.13,1043.71,1186.2,258.56,401.88,0.04
Marian Ilitch,Russia,Europe,M,84,315.35,10.29,3.17,37.85,210,541.98,304.26,181.56,2.12
Dennis Washington,Russia,Europe,M,83,2750.67,678.29,1204.09,422.47,1896.66,21.2,914.57,557.16,0.32
Xu Chuanhua,United Kingdom,Europe,M,82,490.55,106.25,232.67,5.8,66.35,301.51,4.71,216.49,0.84
Erivan Haub,Germany,Europe,F,84,2481.38,898.4,467.01,711.02,15.64,1519.4,603.14,526.2,0.74
Wei Jianjun,United Kingdom,Europe,M,53,609.9,416.31,74.03,69.62,42.04,409.82,141.85,260.03,0.03
Francis Choi,Germany,Europe,M,69,343,117.52,12.03,71.16,156.92,50.82,1.92,63.35,0.18
Gong Hongjia,Italy,Europe,M,52,2407.14,466.44,15.9,849.85,361.56,2949.18,1629.67,605.43,0.7
Gautam Adani,India,Asia,M,55,1511.77,212.9,349.85,31.8,292.14,1541.01,446.39,469.01,0.51
Hiroshi Mikitani,China,Asia,M,52,2732.66,237.98,153.24,350.08,2010.78,1781.63,342.99,1457.19,0.86
Charles Johnson,United States,Americas,M,84,2222.97,149.94,372.57,459.97,106.62,1726.17,170.08,421.35,0.86
Daniel Gilbert,China,Asia,F,55,2918.76,35.96,2104.71,895.11,144.52,640.07,438.37,462.62,0.63
Ludwig Merckle,Singapore,Asia,M,52,90.84,18.74,17.88,41.83,24.71,67.25,45.93,33.36,0.28
Lu Guanqiu,Indonesia,Asia,M,72,1428.09,419.89,592.4,31.15,386.85,379.64,168.49,212.67,0.69
Yan Zhi,Brazil,Americas,M,44,407.04,207.4,129.58,125.93,156.76,93.3,204.63,100.67,0.63
Randa Williams,Hong Kong,Asia,M,56,583.08,227.86,18.49,112.79,64.21,229.86,17.26,49.53,3.35
Dannine Avara,Hong Kong,Asia,M,53,2556.48,1265.93,362.15,190.6,10.51,2928.65,78.64,2120.39,2.34
Scott Duncan,Spain,Europe,M,34,2059.61,181.12,1014.36,384.82,232.33,1970.18,430.99,1291.98,0.22
Milane Frantz,Indonesia,Asia,M,48,1061.48,190.65,316.04,35.68,28.09,1825.64,734.6,598.35,1.68
Andrew Forrest,France,Europe,F,55,1900.07,1149.77,271.86,24.72,325.16,929.06,596.07,204.29,0.12
Brian Acton,Russia,Europe,M,45,2668.11,116.45,2360.77,70.92,123.43,838.48,113.97,725.63,2.33
Whitney MacMillan,Spain,Europe,F,87,2619.65,413.9,49.02,309.67,1078.38,1435.05,254.77,410.84,0.76
Chan Laiwa,United States,Americas,M,76,1478.54,229.54,905.28,294.39,0.6,800.75,505.01,246.33,0.68
Joe Lewis,Brazil,Americas,F,80,2006.3,289.18,119.43,376.74,913.22,1384.23,620.61,453.51,2.38
Frank Lowy,Brazil,Americas,M,86,899.95,342.23,332.53,12.61,400.16,241.72,344.37,82.73,2.21
Richard DeVos,South Korea,Asia,F,91,1317.18,541.33,87.7,15.52,725.72,1131.77,227.22,957.38,0.25
Leon Black,France,Europe,M,66,2347.23,85.98,182.67,1461.23,480.9,441.36,187.41,116.12,1.39
Ralph Lauren,South Korea,Asia,F,77,2954.32,1573.88,1171.44,49.44,61.65,1670.68,908.45,663.79,0.52
Bruce Kovner,United Kingdom,Europe,M,72,1055.92,3.56,117.05,8.5,8.95,1369.01,135.83,314.66,0.66
Vikram Lal,Brazil,Americas,M,75,2261.71,754.14,372.46,301.26,27.43,2626.45,42.96,1776.44,0.62
Hui Wing Mau,India,Asia,F,67,2934.3,22.77,1570.25,1262.3,133.58,2416.65,2061.39,408.58,1.28
Christy Walton,Singapore,Asia,M,68,1577.38,715.85,239.96,963.21,0.98,869.54,218.59,993.29,0.29
Sri Prakash Lohia,Indonesia,Asia,F,65,2519.51,79.91,848.07,670.35,1344.51,2587.79,1416.51,1593.7,0.89
David Shaw,Hong Kong,Asia,M,66,519.17,42.09,116.06,21.93,178.38,240.48,76.9,2.16,0.71
Sumner Redstone,Spain,Europe,F,94,2002.92,60.8,561.53,480.92,558.94,820.13,218.85,260.01,0.54
Guenther Fielmann,United Kingdom,Europe,M,77,87.37,2.78,49.96,4.99,13.87,96.29,35.2,44.5,0.81
David Sun,Japan,Asia,F,65,2448.83,2018.33,65.74,5.06,22.05,727.67,199.74,189.4,0.87
John Tu,South Korea,Asia,M,76,96.41,35.98,6.53,16.58,18.7,33.82,12.7,0.68,1.81
Ted Lerner,Russia,Europe,M,91,740.53,30.82,318.74,287.01,53.17,443.23,84.52,307.19,0.72
Law Kar Po,China,Asia,F,69,704.41,107.32,351,67.63,215.87,214.52,58.6,193.33,0.01
George Lucas,Hong Kong,Asia,M,73,2317.81,162.88,1075.87,1977.18,37.22,747.07,286.13,1391.65,4.62
Trevor Rees-Jones,United Kingdom,Europe,M,66,1093.67,584.75,380.12,167.71,233.07,1109.96,892.86,488.41,0.67
Savitri Jindal,Hong Kong,Asia,M,67,2789.41,2.75,282.31,499.46,1719.94,2136.04,798.33,1052.2,0.57
Benu Gopal Bangur,Italy,Europe,F,86,1634.67,5.66,439.5,75.24,584.7,1652.99,64.33,1057.53,1.57
Vincent Bollore,Japan,Asia,F,65,1690.18,182.07,571.9,936.71,77.6,1656.41,238.99,1494.21,1.3
Wolfgang Marguerre,Hong Kong,Asia,M,76,2353.67,1.1,152.82,1313.07,272.76,1872.3,212.64,1043.64,2.11
Pankaj Patel,South Korea,Asia,M,64,822.54,105.86,311.99,21.07,95.46,939.59,251.39,399.5,0.53
John Doerr,Japan,Asia,F,66,1117.36,1.46,93.87,303.07,166.78,1239.03,617.47,68.5,0.89
Tom & Judy Love,Hong Kong,Asia,M,80,445.09,68.48,319.61,184.57,19.1,68.75,17.14,198.22,0.05
Maria-Elisabeth Schaeffler,India,Asia,M,76,1326.51,7.43,409.26,435.49,29.93,978.02,446.23,87.31,0.08
Israel Englander,Italy,Europe,M,68,1727.39,701.97,443.09,100.58,100.36,1301.98,893.69,26.32,0.58
Jerry Jones,Spain,Europe,M,74,1097.47,42.95,97.01,677.35,166.29,721.68,114.72,492.59,0.5
Oleg Deripaska,Brazil,Americas,M,49,1074.19,38.58,1.31,54.76,161.99,1547.95,714.58,13.37,2.45
Kwee family,France,Europe,M,70,534.95,22.4,40.48,279.02,137.53,94.99,6.76,31.82,0.88
Juan Roig,Hong Kong,Asia,M,67,1971,771.3,257.6,41.1,195.32,3163.35,1321.52,1135.77,0.38
Bruno Schroder,Italy,Europe,M,84,1671.24,599.69,523.9,961.66,336.81,1031.06,611.03,1167.39,3.47
Steven Rales,Brazil,Americas,F,66,2175.44,304.23,411.52,348.36,143.45,2927,1071.39,887.58,0.15
Robert Kraft,United States,Americas,M,76,1386.62,142.85,12.03,54.03,504.42,1556.8,148.14,734.57,0.81
Rupert Johnson Jr.,India,Asia,M,77,198.88,19.33,62.82,25.84,77.08,28.33,9.41,4.18,0.91
Jim Davis,France,Europe,M,74,338.59,217.15,54.28,48.18,46.08,154.75,156.55,24.86,0.44
Wee Cho Yaw,Italy,Europe,F,88,925.98,49.01,144.42,48.3,287.11,857.65,24.35,435.48,0.68
David & Frederick Barclay,Germany,Europe,F,83,799.13,45.29,135.14,414.93,115.47,277.91,146.44,42.75,0.42
Pierre Bellon,Brazil,Americas,M,87,2248.34,137.63,277.49,67.95,457.21,1996.88,368.43,317.71,2.68
Edward Roski Jr.,Russia,Europe,F,78,1308.51,12.6,19.03,309.32,342.16,664.46,6.94,29.65,2.48
George Roberts,Spain,Europe,M,73,2826.56,13.65,1067.96,11.44,38.53,1836.29,48.08,92.47,0.75
Henry Kravis,India,Asia,M,73,2038.85,1155.02,1363.64,563.56,114.14,650.33,1700.6,107.09,0.14
Sam Zell,Russia,Europe,F,75,1832.5,365.1,621.27,89.86,233.45,933.46,223.87,186.05,0.72
Richard Branson,United Kingdom,Europe,M,67,1516.39,953.34,644.52,14.12,109.53,1830.84,1439.62,595.82,0.52
Tamara Gustavson,Brazil,Americas,M,55,1158.24,278.68,246.23,495.61,373.78,442.04,540.05,137.73,0.32
Kwon Hyuk-Bin,Singapore,Asia,M,43,1558.89,186.81,231.64,55.86,98.02,1025.93,34.91,1.74,2.71
Chung Mong-Koo,Germany,Europe,F,79,1712.84,7.32,64.71,0.21,386.57,1457.04,128.49,73.79,0.73
Pollyanna Chu,Singapore,Asia,M,59,1087.18,224.68,332.16,494.46,79.75,833.5,590.87,285.98,0.52
Philip & Cristina Green,United Kingdom,Europe,M,65,103.66,6.65,74,10.62,3.1,21.9,2.75,8.91,0.95
John Overdeck,Japan,Asia,M,47,972.97,58.12,4.86,481.61,467.31,271.36,297.04,12.9,0.36
David Siegel,Brazil,Americas,F,56,2814.23,1207.23,70.99,60.35,1302.3,2110.81,896.23,1041.19,0.03
Ray Lee Hunt,Indonesia,Asia,F,74,1191.18,294.04,308.9,152.97,88.02,1562.17,549.69,664.94,0.27
Daniel Ziff,China,Asia,M,45,1650.98,8.18,652.4,85.36,389.36,1010.31,300.73,193.41,0.5
Dirk Ziff,France,Europe,M,53,1714.02,689.77,246.08,131.08,358.25,1518.54,1219.52,9.49,0.7
Robert Ziff,India,Asia,F,51,283.2,3.63,2.37,2.15,3.67,385.74,1.88,111.53,0.94
Lu Zhiqiang,Germany,Europe,F,64,196.11,21.93,3.91,32.07,150.53,74.56,75.15,8.18,3.57
Desh Bandhu Gupta,South Korea,Asia,M,79,2464.97,1308.55,89.56,1264.5,1925.33,904.21,1921.38,1105.65,0.16
Alejandro Santo Domingo,Spain,Europe,M,40,2627.43,75.81,193.83,134.06,71.36,2697.62,402.81,141.52,0.92
Andres Santo Domingo,India,Asia,M,39,1712.69,813.42,45.49,488.84,0.9,813.9,118.92,329.24,1.7
Pan Sutong,Brazil,Americas,F,54,279.36,112.97,71.5,120.81,13.02,121.07,127.52,31.46,1.04
Paul Tudor Jones II.,Italy,Europe,M,62,669.15,190.34,248.65,88.92,294.22,220.24,298.54,72.52,2.18
Stanley Druckenmiller,Singapore,Asia,F,64,2157.83,176.21,515.84,784.35,1352.65,1706.04,1987.12,389.84,0.31
Charles Dolan,Italy,Europe,M,90,1875.07,174.5,336.03,204.21,583.82,1729.26,148.15,1002.77,1.83
Chairul Tanjung,China,Asia,M,55,454.56,12.69,225.95,80.27,165.95,132.62,16.53,146.16,0.23
Pyotr Aven,South Korea,Asia,M,62,144.77,62.16,64.87,36.59,17.09,22.6,28.25,29.4,0.91
Laurence Graff,United Kingdom,Europe,M,79,1088.85,19.59,181.02,378.97,190.95,590.47,35.31,236.6,0.23
Liu Yonghao,India,Asia,M,66,2432.55,318.49,351.79,153.73,529.64,3697.14,1759.36,858.76,0.13
Zhao Tao,France,Europe,M,51,2074.92,439.94,1352.66,6.22,237.84,189.45,74.72,76.38,0.09
Wu Yajun,Hong Kong,Asia,M,53,675.76,30.57,43.46,129.71,31.91,1349.13,602.21,306.16,0.65
M.A. Yusuff Ali,Singapore,Asia,M,61,393.46,3.88,15.57,156.65,226.55,244.06,1.81,251.1,0.35
Andreas von Bechtolsheim,Hong Kong,Asia,F,61,2432.04,1084.69,90.74,34.1,93.71,1950.58,32.21,788.86,0.71
Karl-Heinz Kipp,Japan,Asia,M,93,463.15,227.7,120.88,234.3,260.56,66.99,431.41,14.88,0.99
Alexander Abramov,China,Asia,M,58,809.5,21.92,244.34,553.97,450.85,710.87,367.7,803.33,1.42
Mitchell Rales,Brazil,Americas,M,61,2685.43,719.18,79.02,1420.91,383.35,1654.59,204.03,1365.79,1.8
John Sall,South Korea,Asia,M,69,346.07,7.73,242.14,133,25.46,180.02,23.01,215.3,3.96
Leandro Rizzuto,Italy,Europe,F,79,1265.02,17.19,9.74,76.57,105.51,2636.03,517.47,1061.99,0.56
Sergei Popov,Brazil,Americas,M,46,1328.9,1.72,3.75,850.94,615.16,254.24,359.55,36.41,0.96
Michael Platt,Spain,Europe,F,49,958.31,320.8,226.79,494.5,70.76,113.09,214.24,51.35,2.03
Clive Calder,Indonesia,Asia,M,70,484.74,147.61,118.94,58.96,180.23,147.98,83.56,85.39,0.03
Kelcy Warren,South Korea,Asia,M,61,1705.2,279.89,614.92,667.22,134.64,1197.84,1145,42.09,2.23
Andrei Guriev,France,Europe,M,57,488.9,89.14,36.28,251.9,12.44,391.96,203.83,88.35,0.65
Micky Jagtiani,Japan,Asia,M,65,1152.45,102.05,21.85,13.79,375.24,1136.03,227.06,268.99,0.47
Wang Wenxue,Russia,Europe,M,50,2532.32,81.44,589.66,1114.06,541.57,1061.88,447.66,406.24,2.39
Michael Herz,India,Asia,M,73,1640.45,506.5,499.38,5.07,21.53,798.42,16.68,170.19,3.58
Wolfgang Herz,Singapore,Asia,F,66,89.6,34.29,17.82,14.1,3.72,29.36,8.31,0.69,0.69
Reinhold Schmieding,Spain,Europe,M,62,1009.46,121.22,22.96,444.54,234.78,381.64,171.16,22.87,1.64
Axel Oberwelland,Hong Kong,Asia,M,50,2032.31,455.89,146.82,886.51,97.39,2075.89,1563.72,64.7,1.78
Anthony Pratt,Hong Kong,Asia,M,57,1225.02,371.53,91.82,157.68,464.96,313.13,165.95,6.94,1.21
Ronda Stryker,Indonesia,Asia,M,63,2778.63,1642.32,22.14,336.96,1212.22,3136.3,1569.58,2001.09,0.63
Akira Mori,Japan,Asia,M,81,253.18,39.24,25.94,22.93,86.77,380.53,173.3,128.8,0.14
Karen Pritzker,France,Europe,F,59,1697.63,315.64,156.82,128.16,229.41,3130.82,634.16,1627.21,1.84
Tong Jinquan,Spain,Europe,M,62,665.97,329.18,7.84,325.66,281.3,130.38,112.85,294.91,0.64
Subhash Chandra,Russia,Europe,M,66,1346.36,853.98,142.74,230.98,95.6,235.39,210.94,0.49,0.91
Sheldon Solow,South Korea,Asia,M,89,2922.92,75.49,787.57,660.31,1537.4,600.39,675.33,58.13,4.78
Richard Li,Spain,Europe,F,50,166.11,20.77,1.15,27.33,115.62,168.07,84.94,81.33,0.55
Sun Piaoyang,Japan,Asia,M,59,54.95,9.18,27.31,15.4,10.22,42.04,38.01,10.21,0.99
Nancy Walton Laurie,Indonesia,Asia,F,66,2135.69,165.19,124.86,1179.75,887.35,239.06,207.04,252.7,0.78
Martin Viessmann,India,Asia,F,63,1293.77,720.04,57.53,205.68,44.57,1503.78,95.98,1140.98,0.86
Frederick Smith,United Kingdom,Europe,M,73,1141.02,4.2,679.36,91.67,237.62,729.79,529.9,68.44,3.29
Gwendolyn Sontheim Meyer,Indonesia,Asia,M,55,1762.51,52.03,181.15,38.03,450.41,2167.81,856.16,267.22,3.54
Kim Jung-Ju,Germany,Europe,M,49,2849.33,485.78,325.65,1267.42,777.92,2473.05,1337.77,1141.51,1.2
Elisabeth Mohn,South Korea,Asia,F,76,974,40.8,344.24,733.83,52.02,506.94,280.36,423.17,0.3
Jeremy Jacobs Sr.,United States,Americas,M,77,430.99,115.52,114.17,90.46,43.23,423.11,324.38,28.34,2.77
Andrei Kozitsyn,Hong Kong,Asia,M,57,2632.38,576.95,554.3,482.79,180.22,2201.5,813.5,549.79,0.1
Jeffrey Skoll,Russia,Europe,M,52,2453.04,543.02,140.02,32.44,398.32,1574.27,70.15,164.15,0.73
Jeffery Hildebrand,India,Asia,M,58,2677.67,471.11,1969.88,724.83,270.17,562.63,202.52,1118.01,0.43
Michel Leclercq,France,Europe,F,78,294.84,26.29,186.18,82.47,49.52,166.65,46.14,168.52,1.61
Theo Mueller,Indonesia,Asia,F,77,2593.39,78.57,1.7,1395.55,98.37,2338.63,836.93,480.64,1.87
Wang Chuanfu,Japan,Asia,F,51,1331.49,293.17,1.7,21.02,59.65,992.58,25.14,8.6,2.88
Pansy Ho,Singapore,Asia,M,55,172.6,6,1.6,6.79,0.98,289.34,23.12,108.98,0.01
Keiichiro Takahara,India,Asia,M,86,666.29,99.15,133.82,105.05,116.25,418.68,101.15,101.6,3.91
James Dyson,United States,Americas,M,70,2389.16,404.25,217.68,8.29,584.61,2002.51,289.23,536.38,2.56
Leonard Stern,Japan,Asia,F,79,727.8,4.54,141.57,297.03,138.15,326.34,169.91,8.54,1.37
Martha Ingram,Hong Kong,Asia,M,82,2511.7,99.77,114.04,733.86,521.55,1231.99,2.72,186.33,0.46
Gabe Newell,Hong Kong,Asia,M,54,622.11,7.15,223.97,54.01,349.35,211.13,3.17,220.24,0.1
Ma Jianrong,Singapore,Asia,F,53,1567.13,89.73,313.62,369.01,161.1,965.31,13.81,313.15,4.69
Kushal Pal Singh,Russia,Europe,F,86,1911.44,67,246.29,36.89,639.45,1194.61,44.26,226.85,1.68
Zhang Jindong,India,Asia,M,54,2038.35,201,1.34,735.96,911.88,1119.07,238.42,691.93,0.56
Terrence Pegula,Italy,Europe,M,66,998.98,298.12,390.64,0.56,49.77,445.13,10.12,174.26,0.86
J. Christopher Reyes,United Kingdom,Europe,M,63,1461.2,240.37,590.86,365.33,236.64,1012.94,749.92,233.82,1.2
Jude Reyes,Singapore,Asia,M,61,1608.71,202.93,376.13,378.25,191.62,1193.39,0.62,732.24,0.76
Angela Leong,South Korea,Asia,M,56,1815.56,1184.52,208.58,1292.63,313.62,382.39,1130.16,433.72,2.3
Ira Rennert,Indonesia,Asia,M,83,134.34,38.51,17.33,7.51,59.86,83.4,21.77,48.21,2.3
Alain Merieux,France,Europe,M,79,212.69,25.69,44.04,33.62,73.15,110.19,42.32,30.98,0.69
Jean-Michel Besnier,China,Asia,M,50,1071.05,730.65,381.22,54.66,186.4,195.66,201.87,275.57,0.1
Marie Besnier Beauvalot,Indonesia,Asia,M,37,1966.75,522.14,531.04,743.3,0.93,1252.47,631.06,445.47,6.61
Patrick Lee,Singapore,Asia,M,75,399.64,179.21,28.78,115.49,190.63,307.19,217.11,203.91,0.64
Robert Bass,China,Asia,F,69,272.23,143.16,16.98,46.71,174.62,8.5,26.44,85.5,5.79
Jason Jiang,Italy,Europe,M,44,2100.47,13.97,1381.21,157.25,898.28,1149.26,27.6,1471.56,0.35
Marc Benioff,Indonesia,Asia,M,52,39.36,11.17,13.39,8.27,11.06,30.11,27.03,4.82,2.79
James Jannard,France,Europe,F,68,957.73,10.59,618.52,18.09,74.48,548.93,307.65,4.83,0.4
Bernard Marcus,Japan,Asia,M,88,2176.67,1294.69,1848.06,580.14,5.14,313.12,1520.49,343.96,0.03
John Gandel,Italy,Europe,M,83,2034.9,257.8,243.35,796.55,12.6,1014.8,179.15,110.77,0.29
Russ Weiner,United States,Americas,F,47,2917.78,115.51,1043.78,1467.93,966.65,1507.61,1871.24,312.22,0.25
Isaac Perlmutter,Russia,Europe,M,74,2768.7,29.77,1076.36,1486.16,100.55,1671.67,863.81,731.32,0.68
H. Ross Perot Sr.,France,Europe,F,87,212.55,12.94,30.61,9.44,39.07,149.87,9.13,16.97,3.29
Robert Rich Jr.,France,Europe,M,76,2955.39,1778.18,773.98,14.48,993.07,996.73,25.06,1575.98,0
John Morris,Japan,Asia,F,69,1435.16,147.82,343.97,43.35,599.49,1542.33,531.56,709.78,0.47
Bobby Murphy,Brazil,Americas,F,29,1982.37,37.74,120.83,317.86,849.91,2761.75,1412.66,692.69,0.37
Evan Spiegel,United Kingdom,Europe,M,27,2198.84,354.56,1216.61,276.66,375.89,761.33,60.03,725.94,0.24
Friede Springer,Indonesia,Asia,M,75,202.85,130.54,4.4,80.48,0.24,112.11,37.41,85.95,1.55
Diane Hendricks,Italy,Europe,M,70,750.39,39.3,139.07,159.35,96.7,601.39,107.41,177.25,0.75
Austen Cargill II.,Germany,Europe,F,66,2988.31,328.64,1250.79,589.75,246.75,1278.15,477.23,227.56,0.98
James Cargill II.,United States,Americas,M,68,1248.75,53.66,112.5,670.51,2.66,464.77,13.34,41.14,0.88
Marianne Liebmann,Italy,Europe,F,64,1500.71,491.87,1082.27,9.22,263.1,1159.55,298.91,1205.96,0.44
Ji Changqun,France,Europe,M,49,703.54,478.01,122.9,60.67,4.14,138.25,66.46,32.92,1.03
Mary Alice Dorrance Malone,Indonesia,Asia,M,67,1656.79,956.83,206.45,208.18,389.98,2117.9,1339.81,881.94,0.79
Ermirio Pereira de Moraes,France,Europe,M,85,2365.06,251.53,108.38,707.8,1737.58,258.3,549.99,148.52,0.02
Maria Helena Moraes Scripilliti,Hong Kong,Asia,F,86,650.59,106.87,14.24,72.53,25.09,638.13,132.96,72.68,0.63
Ralph Dommermuth,China,Asia,F,53,2655.67,887.85,182.82,59.25,499.3,2789.05,1039.31,722.49,0.79
Siegfried Meister,Hong Kong,Asia,F,78,1234.58,426.23,796.32,182.48,32.87,37.13,31.77,206.7,1.98
Kalanithi Maran,France,Europe,M,52,2395.51,427.62,1289.01,602.88,26.67,633.38,574.51,8.97,0.56
Giuseppe De'Longhi,Singapore,Asia,M,78,2351.75,296.29,459.3,979.78,304.9,724.39,35.86,375.76,1.27
Julian Robertson Jr.,United States,Americas,M,85,1534.82,569.58,428.89,18.92,478.63,398.82,15.9,343.16,0.96
Liang Wengen,United States,Americas,M,60,283.74,54.79,10.29,101.31,111.47,206.73,191.36,7.81,1.69
Walter Scott Jr.,France,Europe,M,86,1462.15,298.85,376.23,403.18,164.87,1213.76,619.2,374.56,0.99
Bubba Cathy,Japan,Asia,M,63,1191.36,521.78,55.12,512.09,113.28,31.19,40.58,0.14,1.38
Dan Cathy,Italy,Europe,M,64,841.84,36.49,545.53,30.67,18.95,704.06,479.83,13.59,0.44
Imogene Powers Johnson,Germany,Europe,F,87,2794.55,1004.68,865.06,210.58,700.15,771.46,190.09,565.54,1.75
S. Curtis Johnson,Germany,Europe,F,62,1969.5,101.63,113.88,901.32,616.17,1310.2,55.9,1015.19,2.6
Helen Johnson-Leipold,Italy,Europe,M,60,2097.77,708.76,1518.58,75.27,80.83,283.05,501.71,62.65,4.36
Winnie Johnson-Marquart,Italy,Europe,F,58,1302.49,263.11,26.76,988.29,76.35,56.52,68.63,38.59,1.32
H. Fisk Johnson,Italy,Europe,M,59,1756.11,111.87,111.62,460.71,160.25,1288.19,246.9,129.47,0.16
Stephen Bisciotti,Indonesia,Asia,M,57,2653.83,290.73,333.03,1295.43,172.33,1001.56,401.37,37.29,0.6
Joan Tisch,China,Asia,M,90,2111.99,191.57,38.43,143.62,1435.4,1315.77,525.45,485.56,1.79
Clayton Mathile,Germany,Europe,M,76,1785.58,373.9,120.22,1.54,1259.76,871.73,82.97,756.73,1.87
Nathan Blecharczyk,France,Europe,M,34,1321.61,577.38,422.6,177.31,118.07,104.45,36.44,41.25,0.51
Brian Chesky,Japan,Asia,M,36,125.35,5.15,23.87,16.1,15.33,104.48,8.77,30.23,0.58
Joe Gebbia,Brazil,Americas,F,36,2691.33,842.78,603.18,137.6,2.11,1954.59,299.34,548.84,0.76
Rick Caruso,France,Europe,M,58,613.85,154.6,98.5,139.81,147.54,536.11,238.62,223.59,0.5
Roberto Irineu Marinho,Japan,Asia,M,69,1115.98,276.04,17.27,263.81,43.12,742.26,73,149.23,4.29
Jose Roberto Marinho,Hong Kong,Asia,F,61,1952.7,116.71,286.51,70.54,68.14,2946.11,304.27,1230.43,0.61
Jia Yueting,Brazil,Americas,M,44,2650.93,1890.75,121.91,3.37,1005.57,376.45,118.7,626.79,1.64
Vivek Chaand Sehgal,Brazil,Americas,M,60,2338.98,292.42,153.7,234.54,24.04,1823.58,17.03,171.37,0.9
Ajay Piramal,India,Asia,M,62,534.33,74.8,255.13,9.74,387.36,277.04,235.65,230.45,3.65
Wolfgang Reimann,Russia,Europe,M,64,2788.98,611.45,1247.65,589.47,68.05,2343.22,843.91,1226.21,0.74
Matthias Reimann-Andersen,Russia,Europe,M,52,1064.72,345.07,142.16,130.42,156.41,1039.74,528.21,218.79,2.08
Stefan Reimann-Andersen,Singapore,Asia,M,54,1206.36,534.56,45.11,59.31,353.11,658.44,424.05,19.33,0.79
Renate Reimann-Haas,India,Asia,F,65,1214.24,24.81,73.62,17.69,592.7,875.75,113.38,254.37,2.59
Clemmie Spangler Jr.,United Kingdom,Europe,M,85,870.02,10.65,6.67,72.58,426.17,1196.19,749.61,92.15,0.47
Jerry Speyer,South Korea,Asia,M,77,125.03,15.57,15.44,6.03,98.46,40.88,49.03,1.7,0.62
Ken Fisher,Japan,Asia,M,66,520.45,88.47,280.73,196.91,111.68,445.17,435.62,165.97,0.91
Steven Udvar-Hazy,Spain,Europe,M,71,1788.8,569.41,381.08,235.26,808.74,807.93,546.72,466.23,0.67
Igor Olenicoff,India,Asia,M,74,2929.41,616.54,86.43,1163.34,192.93,3180.55,1214.84,1095.27,0.27
Archie Aldis Emmerson,United Kingdom,Europe,M,88,915.49,4.4,409.22,495.67,111.49,380.41,345.14,140.46,0.1
Steven Spielberg,United States,Americas,M,70,964.2,403.72,200.42,203.48,273.26,236.25,14.03,338.41,0.49
Joao Roberto Marinho,Russia,Europe,M,63,28.99,2.71,2.22,0.41,9.91,26.38,8.74,2.96,0.95
Roger Wang,Russia,Europe,M,68,1845.5,182.41,77.46,1062.41,505.54,692.74,445.7,229.26,0.1
Huang Rulun,South Korea,Asia,F,65,1983.5,163.28,90.47,128.2,484.28,1512.88,59.48,335.96,0.16
Dmitry Kamenshchik,Singapore,Asia,M,49,2929.2,1898.13,342.26,800.38,818.83,487.16,935.78,481.23,0.54
Vivien Chen,South Korea,Asia,M,58,167.66,131.17,19.99,50.47,18.93,9.64,25.83,34.95,1.75
Juergen Blickle,India,Asia,F,70,1932.06,213,80.8,1139.02,8.75,1886.89,211.12,1184.98,0.29
Zhou Jianping,Germany,Europe,F,57,772.38,50.68,51.92,117.29,534.76,241.93,74.2,149.15,0.86
Shigenobu Nagamori,Hong Kong,Asia,F,73,324.67,21.56,161.18,12.22,15.93,409.58,90.7,204.37,0.74
Randall Rollins,Japan,Asia,M,85,2682.5,2066.72,160.57,355.74,610.25,1936.71,1717.95,728.98,0.57
Gary Rollins,Russia,Europe,M,73,448.94,26.5,120.79,209.03,56.53,110.72,58.39,15.88,0.36
Henry Samueli,South Korea,Asia,F,62,373.82,88.65,63.54,24.9,59.11,252.4,21.55,88.31,4.91
Jimmy Haslam,Hong Kong,Asia,M,63,622.84,127.54,93.64,206.9,239.43,327.93,301.48,70.69,0.43
Denise Coates,Brazil,Americas,M,49,2737.37,1049.56,47.33,878.43,456.87,2369.51,469.53,1593.87,0.93
Masatoshi Ito,Brazil,Americas,F,93,1174.65,155.13,385.88,15.89,676.88,1171.26,1020.28,207.11,3
Michael Milken,South Korea,Asia,F,71,137.4,84.86,3.47,4.8,33.89,80.27,50.41,18.8,0.68
Jeff Sutton,Japan,Asia,M,57,384.25,214.45,4.97,59.25,189.21,15.9,85.62,13.18,0.73
Bernard Saul II.,Hong Kong,Asia,M,85,1140.18,615.38,544.01,14.84,8.16,676.32,687.14,30.51,0.87
Masahiro Miki,France,Europe,M,62,562.49,1.2,14.47,131.08,2.8,770.4,156.38,200.97,0.12
Frank Wang,United States,Americas,M,36,1459.08,47.95,201.54,290.16,148.16,1446.23,189.91,479.67,5.38
Dan Friedkin,United States,Americas,F,52,1266.7,462.8,62.61,200.82,63.74,1252.47,118.22,656.46,1.05
Phillip Frost,Hong Kong,Asia,M,80,2025.61,269.34,67.06,17.51,141.29,1709.61,176.11,2.06,1.04
Yu Huijiao,Italy,Europe,M,51,2385.73,466.51,38.02,179.26,921.65,1622.72,333.03,507.69,1.71
Nusli Wadia,Singapore,Asia,F,73,1521.23,558.93,485.22,237.76,117.95,1086.72,836.4,128.43,0.51
Pang Kang,France,Europe,M,61,2932.38,194.52,23.14,10.35,855.45,3852.33,17.36,1985.94,0.1
Rahul Bajaj,Hong Kong,Asia,M,79,397.48,108.48,9.53,23.36,17.57,491.36,82.73,169.88,0.22
Alexandra Schoerghuber,Brazil,Americas,M,59,433,97.15,205.2,87.4,31.13,221.03,135.03,73.41,0.47
Daniela Herz,India,Asia,F,63,408.63,89.2,317.15,26.33,179.93,55.78,108.91,146.86,3.98
Guenter Herz,United States,Americas,M,77,2665.47,95.14,1116.23,109.52,1056.47,4273.76,2330.7,1654.15,0.81
Dagmar Dolby,Germany,Europe,M,76,376.38,24.26,6.69,286.23,3.51,457.67,148.01,253.09,0.88
Ravi Pillai,Hong Kong,Asia,M,64,1926.58,589.99,28.33,750.31,80.89,1936.45,224.52,1232.61,2.25
Yuri Milner,South Korea,Asia,F,55,2124.87,1220.35,12.11,90.56,253.58,751.43,54.51,148.45,0.21
Robert McNair,India,Asia,M,80,29.8,0.68,3.43,11.65,1.48,15.64,1.43,1.25,0.4
Donald Sterling,Singapore,Asia,M,83,666.7,466.88,15.93,56.06,480.73,134.54,462.62,23.09,1.73
Donald Trump,China,Asia,M,71,1436.37,254.15,427.02,1.69,69.85,883.48,80.71,118.89,0.21
Harry Stine,China,Asia,F,75,1773.87,90.36,187.89,842.73,189.73,2022.74,95.97,1463.09,0.51
Peter Kellogg,India,Asia,M,75,2353.8,1414.53,126.58,1675,82.82,943.53,1068.35,819.53,0.77
Vladimir Yevtushenkov,Japan,Asia,M,68,2545.41,43.4,258.39,490.21,1.56,3204.74,147.28,1303.04,2.56
Yu Yong,Germany,Europe,F,56,102.48,12.21,39.21,21.62,8.85,43.09,3.95,18.4,0.15
David Filo,Japan,Asia,M,51,1784.77,58.36,277.91,137.34,642.27,1729.09,127.99,931.03,1.18
Samvel Karapetyan,Spain,Europe,M,52,2400.1,1804.05,13.52,477.99,203.36,1720.59,751.1,1067.39,0.92
Chang-Woo Han,Japan,Asia,M,86,2270.07,67.43,119.4,443.18,84.33,2209.99,213.68,439.63,0.95
Che Jianxing,France,Europe,M,51,2108.12,284.7,86.03,4.98,321.65,3058.27,1184.46,462.86,0.19
Sun Guangxin,India,Asia,F,54,480.84,17.05,106.5,87.93,357.23,156.34,70.69,173.32,0.18
Jeff Greene,Brazil,Americas,F,62,487.79,36.99,182.22,16.7,18.09,562.79,52.48,275.07,1.46
Li Shuirong,Italy,Europe,M,61,49.02,1.11,5.64,6.55,20.47,25.63,6.83,2.38,1.17
Anthony Pritzker,France,Europe,M,56,689.48,75.15,141.97,309.72,50.37,1012.93,463.9,436.09,0.67
Jay Robert (J.B.) Pritzker,Spain,Europe,M,52,1838.26,11.11,33.54,341.06,71.9,2572.11,834.49,356.57,0.41
George Lindemann,Brazil,Americas,M,81,1426.1,277.91,987.5,139.38,87.29,203.43,253.73,14.71,0.98
Mark Cuban,Germany,Europe,M,59,2117.33,892.72,265.43,615.55,754.49,1851.55,1580.82,678.07,3.52
Randal Kirk,Indonesia,Asia,M,63,2744.02,121,294.42,1157.03,404.86,2839.58,45.91,2026.25,0.71
David Rockefeller Sr.,Italy,Europe,F,102,2655.16,603.28,306.13,432.48,714.14,2727.71,427.66,1698.11,2.8
Lin Xiucheng,Indonesia,Asia,M,61,711.46,75.64,50.25,25.76,67.88,786.49,193.46,99.54,1.54
Miguel Fluxa Rossello,China,Asia,F,79,1679.03,840.84,224.22,714.76,639.43,435.18,400.74,774.34,0.32
Bernard Broermann,United States,Americas,M,73,1107.36,800.97,301.3,149.37,106.45,278.71,145.11,383.43,0.88
Wang Yusuo,Hong Kong,Asia,M,53,878.35,135.96,418.71,112.61,235.62,425.03,310.07,136.67,2.85
Walter Faria,Spain,Europe,M,62,2221.37,226.28,46.07,135,360.73,2323.75,710.96,159.41,0.1
Rainer Blickle,France,Europe,M,70,2951.97,102.77,1504.51,276.24,569.4,1442.91,902.42,41.01,0.42
Shi Yuzhu,Russia,Europe,M,55,1221.12,284.31,1.43,435.81,138.71,563.05,49.24,152.52,0.44
Arthur Blank,United Kingdom,Europe,M,74,262.87,37.63,122.93,89.15,12.78,44.21,20.63,22.95,0.25
Qiu Guanghe,France,Europe,M,65,2466.45,33.14,453.93,249.64,527.87,1528.16,118.74,205.59,1.97
Tom Gores,United States,Americas,M,53,2050.73,1609.52,1.95,1800.71,105.54,4.9,385.74,1084.58,1.55
Alexander Svetakov,Germany,Europe,M,49,777.83,414.81,86.41,193.81,18.42,290.57,110.67,114.02,1.5
John Catsimatidis,China,Asia,M,68,283.4,15.97,72.4,61.44,7.32,431.92,242.74,60.69,2.22
Edwin Leong,Russia,Europe,M,65,862.81,143.33,4.93,276.12,26.02,523.43,17.46,93.05,0.51
Abilio dos Santos Diniz,Russia,Europe,F,80,112.6,3.39,13.28,21.96,8.14,111.81,0.37,44.51,1.1
Jiang Bin,Singapore,Asia,M,50,288.43,58.76,22.06,106.99,44.94,71.1,13,1.18,1.23
Chey Tae-Won,South Korea,Asia,F,56,1911.79,294.08,482.18,986.33,0.11,225.99,42.42,33.51,0.99
Nie Tengyun,China,Asia,F,41,1442.17,109.51,146.04,238.29,617.02,1775.22,577.1,866.53,0.29
Jack & Laura Dangermond,Japan,Asia,F,72,286.64,2.61,119.52,18.8,42.64,183.82,23.73,56.79,0.24
Zhang Xin,Hong Kong,Asia,F,52,867.33,190.01,186.24,716.76,125.49,312.82,190.19,467.48,6.33
Ye Chenghai,United States,Americas,F,74,741.41,560.74,114.16,256.28,146.96,181.88,31.65,486.18,0.79
Thomas Pritzker,China,Asia,M,67,1064.32,127.46,251.39,248.24,82.91,656.41,43.94,255.03,3.12
Richard Schulze,South Korea,Asia,F,76,2648.9,433.09,1239.91,749.7,597.24,292.82,55.31,605.59,2.96
Ronald Lauder,Germany,Europe,M,73,191.94,7.8,47.62,7.22,5.73,419.86,146.83,144.91,4.54
Michael Moritz,Russia,Europe,F,62,2152.43,186.43,1069.91,634.93,90.84,1943.39,1486.35,285.97,0.74
Lindsay Fox,Japan,Asia,M,80,2514.48,437.23,342.21,658.15,984.48,1216.92,341.95,777,5.55
Anil Agarwal,India,Asia,M,63,1959.68,12.49,361.62,0.51,375.93,2654.34,996.99,448.2,0.01
Neil Bluhm,Italy,Europe,F,79,33.1,21.24,1.12,0.39,2.62,21.32,5.44,6.76,1.4
Daniel Och,India,Asia,M,56,1717.64,624.03,93.83,37.1,193.69,1077.37,91.99,216.3,0.08
Amos Hostetter Jr.,France,Europe,F,80,943.5,17.13,226.07,212.54,224.78,483.06,75.62,142.76,1.7
Pedro Moreira Salles,Italy,Europe,M,57,2071.2,271.48,480.13,137.72,382.23,1408.63,181.54,426.76,0.69
Jorge Moll Filho,Brazil,Americas,M,72,792.33,5.04,43.93,36.38,341.95,373,1.98,5.46,0.53
Fernando Roberto Moreira Salles,Spain,Europe,M,71,123.19,6.49,105.29,88.58,5.17,28.57,75.83,32.38,2.69
Joao Moreira Salles,Hong Kong,Asia,M,55,2195.6,112.31,136.1,1291.64,40.88,2186.52,826.39,743.31,2.15
Walther Moreira Salles Junior,Brazil,Americas,M,61,1468.28,246.67,290.2,758.69,594.83,388.49,369.35,440.07,1.19
Patrizio Bertelli,Japan,Asia,M,71,1424.25,201.02,145.33,802.96,85.86,1428.2,1227.45,9.44,2.23
Miuccia Prada,United States,Americas,F,68,586.79,216.11,169.19,89.28,242.1,286.64,99.41,316.55,0.57
Bennett Dorrance,Hong Kong,Asia,M,71,574.47,26.79,467.44,183.08,213.26,136.82,256.75,196.15,0.01
Yang Kai,Italy,Europe,F,60,2988.46,179.83,167.58,99.84,459.33,5542.25,1899.3,1560.22,0.84
Pawan Munjal,Hong Kong,Asia,F,63,2814.14,289.46,695.62,1380.87,1197.89,661.04,711.77,698.96,0
Yusaku Maezawa,France,Europe,M,41,2719.64,1537.28,350.51,858.78,203.09,1850.03,1976.03,103.36,0.66
God Nisanov,Singapore,Asia,M,45,513.04,1.72,292.82,45.59,74.81,328.58,32.31,195.36,2.82
Andreas Struengmann,United Kingdom,Europe,M,67,2662.86,1379.98,1355.46,155.32,302.57,817.94,643.98,704.02,0.4
Thomas Struengmann,United States,Americas,M,67,2664.83,834.61,1031.79,1030.17,1386.85,1579.66,1927.4,1270.67,0.17
Ronald McAulay,Italy,Europe,M,81,941.07,565.65,37.89,36.69,10.21,378.45,79.53,7.93,0.37
John Paul DeJoria,United Kingdom,Europe,M,73,725.9,118.75,27.88,440.07,62.8,99.44,22.05,0.26,0.72
Renata de Camargo Nascimento,Spain,Europe,M,66,2069.12,1139.11,213.94,355.94,1134.8,1883.74,1463.03,1194.38,1
Reid Hoffman,Indonesia,Asia,M,50,2934.29,1377.6,39.44,386.4,1222.59,533.3,192.78,430.34,1.92
Viatcheslav Kantor,Spain,Europe,M,63,567.6,49.73,28.04,2.1,50.53,575.42,79.48,58.66,0.07
Rossana Camargo de Arruda Botelho,France,Europe,M,67,2070.47,429.26,4.22,71.5,462.82,2766.74,940.17,722.98,0.92
Regina de Camargo Pires Oliveira Dias,Japan,Asia,M,63,1719.26,88.73,473.36,513.67,1109.43,1309.06,754.66,1020.31,0.04
Lynn Schusterman,Singapore,Asia,M,78,1961.99,51.4,15.57,265.17,303.75,1417.77,65.27,25.78,0.61
Riley Bechtel,India,Asia,M,65,2227.05,128.61,812.83,25.3,731.44,1435.95,799.49,107.03,0.58
Stephen Bechtel Jr.,Indonesia,Asia,F,92,1546.23,379.08,662.05,88.06,554.35,1597.64,674.87,1059.66,0.43
Simon Xie,Indonesia,Asia,M,47,1724.54,44.92,284.46,988.13,457.72,1057.16,1035.53,70.64,1.67
Liu Zhongtian,India,Asia,F,53,2860.31,140.37,1293.58,208.02,1777.81,357.31,857.14,59.31,0.34
Marc Ladreit de Lacharriere,Indonesia,Asia,M,76,1016.55,302.13,159.87,344.79,479.9,480.6,570.44,176.54,3.77
Xiao Wenge,France,Europe,M,50,2475.66,302.89,87.3,177.97,1620.85,982.36,357.67,332.02,6.02
Akio Nitori,Japan,Asia,F,73,2038.87,735.39,516.72,254.14,1384.81,153.99,547.83,457.01,1.34
Zarakh Iliev,France,Europe,M,50,1718.38,207.48,111.79,24.68,310.14,2762.92,1068.26,629.49,0.87
B.R. Shetty,India,Asia,F,75,840.95,30.13,71.2,133.68,111.19,1050.92,478.83,76.64,0.7
Renzo Rosso,China,Asia,F,61,2278.85,1241.67,258.45,678.97,26.2,2286.94,1824.03,389.03,0.32
Andrew Currie,Japan,Asia,M,61,501.11,158.96,171.09,88.15,39.87,73.38,26.65,3.34,0.35
John Reece,Italy,Europe,M,60,1969.35,240.65,1470.9,89.31,43.44,1728.49,1479.63,120.97,2.84
Robert Pera,India,Asia,M,39,639.47,9.25,117.67,20.56,311.78,517.7,38.58,296.57,2.33
Henry Nicholas III.,China,Asia,M,57,1490.01,714.49,267.12,351.92,50.44,1644.08,731.79,804.42,1.83
Erwin Franz Mueller,Japan,Asia,F,85,2134.09,1.62,41.42,1484.94,188.96,1736.73,674.04,640.92,4.61
John Arnold,Italy,Europe,F,43,2370.89,1546.66,185.61,652.67,49.41,1646.18,284.69,1424.49,0.46
Samuel Tak Lee,United States,Americas,M,78,604.95,135.34,19.04,275.12,266.89,270.24,298.08,58.33,5.27
Leon G. Cooperman,India,Asia,M,74,1512.65,25.87,428.89,2.66,234.89,2507.29,505.63,1180.5,0.81
Jane Goldman,Hong Kong,Asia,M,62,943.61,310.61,30.93,46.31,97.28,481.43,3.67,18.56,0.71
James Packer,Hong Kong,Asia,M,49,255.62,49.1,42.22,26.42,39.98,181.17,38.33,42.34,2.61
Amy Goldman Fowler,Hong Kong,Asia,F,63,521.3,9.64,379.06,296.4,40.03,326,241.07,288.33,0.42
Diane Kemper,Russia,Europe,F,72,225.77,25.24,1.41,36.42,45.81,352.78,146.1,89.37,0.42
Oprah Winfrey,Japan,Asia,M,63,1988.61,1111.35,64.3,395.65,501.78,442.5,323.8,202.98,0.2
Allan Goldman,Hong Kong,Asia,M,74,1033.37,504.13,48.09,56.53,203.32,1135.15,437.72,475.99,0.14
Romesh T. Wadhwani,Japan,Asia,F,70,1889.06,24.42,284.84,252.47,1219.77,1795.11,429.03,1257.09,1.43
Alexander Ponomarenko,Spain,Europe,M,52,2522.33,101.73,1333.2,16.46,960.86,1627.91,15.39,1501.81,0.63
Alexander Skorobogatko,Japan,Asia,M,49,425.22,72.6,181.24,1.12,20.05,623.21,123.82,347.51,1.67
Clifford Asness,Indonesia,Asia,M,50,1727.84,342.89,167.06,93.44,723.04,2089.84,1436.89,251.14,0.39
James Leprino,India,Asia,M,79,2135.34,112.14,413.49,547.59,243.05,1824.19,358.76,644.46,1.91
Kenneth Langone,Italy,Europe,M,81,1488.42,476.21,514.02,740.08,8.31,952.95,791.98,407.92,3.25
Howard Schultz,Spain,Europe,M,64,356.22,13.98,31.19,125.7,1.41,375.08,114.68,74.8,1.66
Haim Saban,Germany,Europe,M,72,1751.53,48.53,211.96,438.85,19.74,1153.09,78.79,41.8,0.06
Tom Golisano,South Korea,Asia,M,75,1981.16,612.58,369.1,716.08,106.42,955.91,276.43,502.05,0.45
Edward Bass,France,Europe,F,71,1888.42,283.94,1155.86,1356.48,144.74,874.05,537.76,1388.78,0.11
Jean Pierre Cayard,France,Europe,M,74,33.83,1.59,22.67,7.28,4.88,6.23,3.31,0.09,5.4
Anthony Bamford,France,Europe,M,71,480.48,336.32,8.31,174.09,140.8,159.36,75.66,261.74,0.99
Anita Zucker,Spain,Europe,M,65,2851.75,142.3,934.29,893.19,157.2,1144.03,359.51,58.76,1
Kurt Krieger,France,Europe,F,69,402.19,205.72,36.24,159.37,30.29,128.4,2.03,155.33,0.48
Juan-Miguel Villar Mir,Indonesia,Asia,M,85,1870.97,39.59,6.74,847.21,195.93,2169.4,714.51,672.33,1.06
Ke Zunhong,Italy,Europe,M,63,436.97,133.28,40.4,29.94,60.23,188.97,7.23,7.26,1.35
Zhang Fan,Germany,Europe,F,51,1956.41,722.75,204.82,6.18,122.54,2748.05,380.41,1466.61,0.91
Douglas Leone,Singapore,Asia,M,60,809.7,13.32,182.36,241.75,431.28,399.79,57.44,400.55,0.81
Daniel Loeb,United Kingdom,Europe,F,55,1135.64,287.64,117.03,9.77,759.43,410.75,33.3,415.11,0.58
Bernard Ecclestone,Spain,Europe,M,86,2310.79,122.18,233.61,583.59,1159.67,826.98,383.99,229.39,1.85
Tilman Fertitta,France,Europe,M,60,89.59,5.19,30.59,0.36,10.4,121.31,34.15,43.65,0.46
Park Hyeon-Joo,France,Europe,M,58,2215.68,278.24,624.05,821.02,8.64,1448.45,177.7,786.41,0.62
Chanchai Ruayrungruang,Indonesia,Asia,M,63,1343.42,31.03,540.43,6.02,860.6,399.36,448.41,45.5,0.11
Min Kao,Hong Kong,Asia,F,68,2661.31,1090.98,55.19,167.71,139.44,1973.21,31.07,733.49,0.65
Mark Shoen,Italy,Europe,M,66,1308.36,1051.39,31.31,658.42,65.25,588.32,912.44,172.77,1.13
Kieu Hoang,United States,Americas,M,73,2357.68,1151.18,149.45,42.97,515.55,3494.9,977.76,2017.96,0.65
Jason Chang,Singapore,Asia,M,73,819,27.71,47.13,121.64,23.49,1727.22,528.47,598.03,1.7
Mortimer Zuckerman,India,Asia,M,80,971.2,128.58,212.24,174.57,266.43,1290.14,454.57,644.11,2.07
Edward DeBartolo Jr.,Brazil,Americas,M,70,1994.38,1270.69,61.61,2.8,88.6,1045,104.76,369.01,0.56
Lee Bass,Russia,Europe,M,61,2358.83,13.88,213.48,173.18,81.52,4572.58,1525.14,1169.68,0.99
Zhang Xiaojuan,United States,Americas,M,47,2322.3,452.39,576.27,764.09,208.7,2178.76,1185.75,672.08,0.07
A. Jerrold Perenchio,Indonesia,Asia,M,86,2995.55,385.31,170.05,1206.68,1095.23,454.42,243.28,72.21,0.66
Rafael Del Pino y Calvo-Sotelo,China,Asia,M,59,2424.93,569.53,110.62,857.11,1104.58,2084.6,1945.56,354.25,1.7
Gao Tianguo,Germany,Europe,M,66,931.36,5.87,406.75,7.4,124.83,828.8,25.59,416.04,0.67
Sid Bass,Germany,Europe,F,75,2300.64,739.63,847.27,213.32,181.6,495.33,141.5,34.56,0.45
Barry Diller,Russia,Europe,M,75,1679.95,60.34,1206.63,163.79,482.19,608.92,340.26,499.83,1.82
Yvonne Bauer,Spain,Europe,M,40,346.44,3.65,46.12,44.22,73.4,398.93,24.13,195.39,0.35
Hortensia Herrero,Brazil,Americas,M,67,284.83,49.97,28.84,3.16,139.45,394.71,256.13,72.75,2.42
Chen Fashu,Italy,Europe,M,56,1408.8,552.72,129.31,201.73,740.88,769.61,49.92,934.97,0.57
Pat Stryker,Indonesia,Asia,M,61,761.97,156.99,70.47,125.17,43.22,710.26,217.13,125.87,1.15
Tahir,India,Asia,M,65,1698.75,76.59,60.22,66.2,61.39,2299.28,49.76,814.25,0.92
Peter Hargreaves,United Kingdom,Europe,M,70,2817.37,1417.01,871.48,351.57,434.96,89.69,306.45,37.19,3.71
Jim Breyer,Spain,Europe,M,56,1607.11,192.04,228.75,13.86,460.87,814.71,2.71,99.61,0.8
Huang Shih Tsai,Germany,Europe,M,66,1033.07,595.35,90.22,95.42,465.66,359.95,141.01,432.39,0.14
Do Won & Jin Sook Chang,United Kingdom,Europe,M,61,1805.99,48.51,336.09,1150.34,245.27,833.92,249.72,558.12,0.31
John Middleton,United States,Americas,M,62,1675.99,137.47,85.24,52.08,491.02,1141.29,16.77,213.66,0.68
Charles Cohen,Spain,Europe,M,65,1409.62,34.51,260.62,78.52,19.52,1530.44,356.2,155.91,1.87
William Wrigley Jr.,Italy,Europe,M,53,1055.02,58.62,198.22,85.83,196.84,1003.5,65.44,421.13,1.43
Jorge Perez,Russia,Europe,M,67,2717.7,554.78,81.31,927.28,704.92,1492.79,338.05,704.87,0.46
B. Wayne Hughes,Brazil,Americas,M,83,916.18,146.45,150.27,126.66,26.63,840.63,243.78,130.17,0.52
Herbert Simon,Japan,Asia,M,82,2885.24,619.65,186.68,1320.77,283.96,2347.19,100.99,1771.81,0.2
Cai Kui,Spain,Europe,M,54,1472.69,503.05,192.74,68.4,5.8,1763.23,520.08,540.08,0.38
Jen-Hsun Huang,Brazil,Americas,M,54,2474.35,142.65,143.7,196.75,31.64,4855.06,870.23,2024.55,0.67
Carlo Benetton,China,Asia,M,73,512.7,85.38,275.97,47.82,250,550.85,472.76,224.53,0.02
Gilberto Benetton,France,Europe,F,76,356.33,19.83,94.57,169.63,11.97,133.18,1.94,70,0.92
Giuliana Benetton,United States,Americas,M,80,1445.04,165.59,347.72,8.99,115.68,1296.65,143.45,345.86,0.27
Luciano Benetton,France,Europe,F,82,1131.6,270.89,97.96,419.61,105.79,1224.63,2.43,983.53,1.32
Ashwin Dani,Russia,Europe,M,74,2793.74,124.58,85.95,1120.65,45.7,3781.93,1924.56,439.26,1.25
Cao Longxiang,Russia,Europe,F,60,765.11,188.81,2.03,417.46,367.03,518.53,313.75,414.48,0.53
Yasumitsu Shigeta,China,Asia,M,52,1446.8,715.47,872.63,312.16,152.27,204.95,406.29,404.34,0.05
Kwek Leng Beng,France,Europe,M,76,1134.61,267.51,0.81,218.7,712.43,311.67,363.14,10.31,3.07
Anil Ambani,Hong Kong,Asia,M,58,2320.06,92.51,590.96,105.27,475.9,1140.98,68.79,14.33,2.44
Joshua Harris,India,Asia,F,52,716.37,45.16,80.5,26.73,0.15,1072.84,292.49,216.22,0.3
John Brown,Germany,Europe,M,82,1456.07,45.86,999.76,8.6,15.51,1669.56,540.47,742.02,0.73
Marc Rowan,France,Europe,M,55,2251.32,757.04,299.8,19.05,257.63,1901.33,463.17,520.06,0.3
Otto Happel,Singapore,Asia,F,69,2011.14,24.93,623.59,82.25,198.16,1605.9,505.45,18.25,0
Friedhelm Loh,Spain,Europe,F,71,1687.49,548.76,682.25,428.13,150.48,425.39,415.26,131.41,0.85
Paul Singer,Russia,Europe,M,73,1574.73,47.64,299.43,751.22,160.67,1706.34,566.65,822.95,0.97
Ray Davis,United Kingdom,Europe,F,75,1337.83,67.36,371.46,483.41,24.73,753.99,345.18,17.85,0.09
Lu Xiangyang,Spain,Europe,M,54,1568.72,529.68,830.78,394.17,25.76,175.25,287.45,98.94,0.53
H. Wayne Huizenga,Spain,Europe,M,79,279.05,1.76,9.44,22.6,91.16,266.47,71,38.8,2.58
Huang Wei,Hong Kong,Asia,M,57,2927.44,16.56,93.27,809.35,2402.38,258.28,10.64,641.21,0.55
Rita Tong Liu,Russia,Europe,M,68,535.19,236.9,6.75,59.74,207.82,260.8,168,68.37,0.45
Johnelle Hunt,Hong Kong,Asia,M,85,1667.23,436.61,214.43,276.43,287.16,1150.71,556.31,139.84,1.96
Peter Thiel,India,Asia,M,49,1145.38,542.32,142.57,412.43,604.81,73.6,313.59,316.45,0.31
David Murdock,United Kingdom,Europe,M,94,1056.65,385.65,283.89,336.52,240.75,342.46,151.87,380.14,0.62
Wang Xicheng,Japan,Asia,M,68,84.92,7.41,12.42,11.96,4.37,144.22,39.81,55.5,0.14
Henry Hillman,Hong Kong,Asia,M,98,1381.21,435.96,185.89,3.51,297.96,993.86,8.69,526.3,0.99
Karsanbhai Patel,India,Asia,F,73,2586.04,4.1,265.71,967.8,1316.99,2057.23,1651.97,372.86,0.96
Zhang Jing,Italy,Europe,M,45,1029.22,20.22,65.19,540.86,444.18,113.82,33.55,120.24,1.26
Louis Le Duff,Germany,Europe,M,71,1252.88,586.97,152.2,555.48,298.74,29.62,352.4,17.14,0.6
Michael Ashley,Russia,Europe,M,52,2210.99,183.36,20.19,1908.62,114.64,42.15,37.7,19.22,1.05
P.V. Ramprasad Reddy,Indonesia,Asia,M,59,1014.24,228.73,180.44,73.65,210.92,831.33,193.2,315.07,2.57
Otto Philipp Braun,South Korea,Asia,M,39,229.09,19.44,42.18,4.96,124.6,100.68,51.47,9.49,1.81
Rajan Raheja,Hong Kong,Asia,M,63,2573.25,673.05,1596.16,701.16,183.29,1219.72,1672.97,125.92,1.23
Robert Duggan,United Kingdom,Europe,F,73,2683.33,621.23,884.84,138.81,645.95,2594.43,606.39,1594.17,1.39
Bill Haslam,South Korea,Asia,M,59,813.24,78.65,50.3,154.64,493.67,332.84,109.19,184.85,2.82
Robert Miller,South Korea,Asia,M,84,2567.28,573.61,30.9,52.99,281.21,2674.72,1045.37,0.74,0.05
Dirk Rossmann,Spain,Europe,F,70,1327.1,279.67,19.44,403.74,542.34,1045.41,313.19,649.61,0.71
Philippe Foriel-Destezet,United Kingdom,Europe,F,81,2649.69,578.02,966.04,893.98,1567.47,737.55,1481.14,611.04,1.2
Yoshiko Mori,Hong Kong,Asia,M,76,2382.74,833.83,1092.33,672.39,110.37,247.93,289.16,282.96,1.99
Fiona Geminder,Germany,Europe,M,52,1574.39,518.34,257.84,154.47,158.32,1635.73,399.98,749.45,0.88
Doris Fisher,Spain,Europe,F,86,2476.82,425.93,534.26,330.29,419.5,2401.68,1515.79,115.3,3.76
Sean Parker,Hong Kong,Asia,M,37,1619.51,134.76,112.46,246.27,355.46,1352.36,43.17,534.97,3.65
Tom Benson,China,Asia,F,90,1863.4,108.9,507.38,345.78,227.11,1239.95,525.31,39.79,0.61
Stephen Mandel Jr.,South Korea,Asia,M,61,563.95,137.08,17.28,250.59,176.3,163.78,4.54,176.41,0.14
Chung Eui-Sun,Indonesia,Asia,M,46,1928.52,654.27,161.6,0.07,451.95,2314.3,1325.66,327.99,0.03
Arkady Rotenberg,Russia,Europe,F,65,1679.45,542.61,36.15,155.92,634.38,990.4,465.47,213.99,0.54
Lei Jufang,Spain,Europe,M,64,564.64,166.64,79.19,237.35,5.18,277.87,133.97,67.07,0.55
Acharya Balkrishna,Hong Kong,Asia,M,45,774.99,153.16,135.59,55.6,287.09,662.37,461.28,56.07,1.47
Zhang Bangxin,United Kingdom,Europe,M,37,2894.98,1083.82,505.18,668.33,903.1,805.29,581.22,488.58,0.94
Fu Liquan,Germany,Europe,F,50,1906.01,579.18,312.63,24.77,32.15,2679.26,51.17,1668.43,2.38
Li Gaiteng,Brazil,Americas,F,45,1454.5,876.38,647.54,83.86,19.64,132.09,110.46,189.5,5.04
Robert Smith,Spain,Europe,M,54,2965.49,55.81,1171.71,150.54,308.33,4391.27,1920.59,1188.31,3.24
Wang Xing,Italy,Europe,M,44,2358.83,100.66,299.51,209.31,1.23,3130.86,602.68,778.31,1.75
Steve Wynn,Russia,Europe,M,75,1160.24,136.46,586.43,225.85,356.09,229.2,309.86,63.78,0.14
Thomas Siebel,Germany,Europe,M,64,520.59,37.67,8.33,38.68,7.65,492.09,60.01,1.11,2.71
Adi Godrej,Germany,Europe,M,75,685.77,76.79,68.64,57.86,62.24,467.03,30.43,15.78,0.57
Rishad Naoroji,South Korea,Asia,M,66,795.79,50.9,157.15,280.91,209.69,290.56,156.45,36.66,0.3
Smita Crishna-Godrej,United Kingdom,Europe,M,66,1260.97,264.4,516.52,6.87,588.14,832.16,835.09,110.33,1.7
Jamshyd Godrej,Russia,Europe,F,68,1223.26,595.8,159.16,63.88,8.54,1122.56,25.68,700.04,0.95
Nadir Godrej,Russia,Europe,M,66,2322.5,87.91,632.6,838.01,20.22,1428.97,391.12,293.71,0.36
Ty Warner,China,Asia,M,73,221.41,113.36,111.78,45.73,0.63,47.64,27.66,69.43,0.64
Phillip Ruffin,South Korea,Asia,M,82,2454.84,136.04,1158.71,215.62,232.61,988.47,89.7,186.37,0.54
David Rubenstein,Germany,Europe,M,68,2062.22,24.1,312.01,381.96,9.51,1717.29,240.7,141.58,0.38
Alicia Koplowitz,India,Asia,F,62,1912.73,876.9,727.09,79.27,138.34,1246.11,860.55,292.58,1.84
Jon Stryker,Italy,Europe,M,59,1608.65,284.23,715.4,82.52,345.75,351.19,125.48,44.67,0.29
Jay Paul,Hong Kong,Asia,M,70,2886.67,1491.36,1124.62,43.13,784.73,2134.71,552.85,2138.18,0.86
William Conway Jr.,Indonesia,Asia,F,68,866.6,182.99,398.64,250.68,115.76,684.94,297.62,466.56,2.22
Daniel D'Aniello,United Kingdom,Europe,M,70,2289.05,10.43,163.23,379.08,48.32,3064.77,1316.77,59.24,0.78
Chandru Raheja,Indonesia,Asia,M,76,2574.59,907.71,846.09,312.56,285.62,1786.23,37.12,1526.4,0.1
Don Hankey,South Korea,Asia,F,74,1038.23,166.41,219.51,102,170.84,1137.83,601.83,155.93,0.61
Peter Buck,Italy,Europe,F,86,1580.26,146.29,231.36,11.7,351.74,2316.91,1223.79,252.87,1.08
Jean (Gigi) Pritzker,South Korea,Asia,F,55,2799.26,658.1,1783.54,505.65,118.26,2299.75,1305.38,1259.87,0.79
Patrick Ryan,India,Asia,M,80,2115.01,115.33,124.37,673.6,288.47,1152.25,129.62,106.12,3.28
George Bishop,Russia,Europe,M,79,2077.81,9.74,11.43,27.69,159.58,2433.39,291.42,271.89,0.71
Penny Pritzker,Indonesia,Asia,M,58,1322.17,187.81,19.65,815.97,12.88,321.94,19.33,16.13,0.63
Bob Parsons,Japan,Asia,M,66,2821.87,153.77,1306.44,946.96,2058.38,547.55,1913.03,277.26,0.94
James Irsay,United Kingdom,Europe,M,58,296.8,6.37,161.61,97.47,100.98,44.84,105.68,6.25,2.53
John Henry,Hong Kong,Asia,M,67,1946.34,29.2,894.23,524.6,8.64,1948.51,658.76,799.59,0.48
E. Joe Shoen,India,Asia,M,67,2874.73,332.88,464.66,143,152.79,4867.6,1252.65,1830.93,2.61
John Arrillaga,Singapore,Asia,M,80,1267.15,451.23,289.54,326.62,16.74,235.48,12,38.1,2.35
Richard Peery,Singapore,Asia,M,78,1838.13,871.69,1127.8,793.22,164.96,446.56,229.65,1336.31,0.14
Warren Stephens,South Korea,Asia,F,60,1482.39,69.32,255.73,260.04,532.26,1059.34,622.13,71.23,0.94
Jim Davis,Brazil,Americas,M,57,1909.15,517.86,159.5,452.39,922.46,102.1,193.45,46.8,4.91
Kenneth Feld,United States,Americas,M,68,442.49,98.23,88.14,34.5,73.16,422.49,142.21,130.13,1.69
Wilbur Ross Jr.,United Kingdom,Europe,M,79,1478.8,17.27,916.52,203.99,71.6,938.51,3.18,665.51,0.41
Mark Walter,Russia,Europe,M,57,535.37,125.27,146.74,179.61,61.46,468.81,97.04,349.1,0.37
David Bonderman,Germany,Europe,M,74,2157.84,383.32,478.1,107.06,285.99,2748.56,288.89,1551.84,4.47
Bill Gross,Brazil,Americas,M,73,1762.16,470.37,86.52,12.1,1153.85,135.78,25.39,70.55,0.51
Michael Ying,South Korea,Asia,F,67,2965.43,1895,302.37,7.23,2191.56,605.34,1395.86,640.21,0
Alexander Mamut,Russia,Europe,F,57,2924.39,403.25,1427.52,38.18,72.17,2187.72,22.01,1175.91,6.51
Judy Faulkner,United States,Americas,F,74,921.64,391.98,115.99,347.11,174.15,931.2,651.76,385.42,1.62
Hasmukh Chudgar,Russia,Europe,M,83,1468.63,79.1,6.2,659.01,419.7,635.19,264.43,64.26,1.87
Clemens Toennies,China,Asia,M,61,726.08,218.63,54.43,316,184.13,40.48,69.86,17.26,0.47
Baba Kalyani,Brazil,Americas,F,68,2427.91,1445.3,9.39,730.86,1257.74,852.29,49.23,1817.6,0.84
Manuel Lao Hernandez,Russia,Europe,M,73,2041.73,391.71,251.47,665.82,255.77,772.26,170.98,123.58,0.73
Raj Kumar & Kishin RK,Spain,Europe,M,63,219.48,109.04,13.76,18.54,95.41,145.65,112.64,49.39,0.89
Thomas Secunda,Japan,Asia,F,63,466.06,142.44,1.72,100.25,27.82,356.13,80.5,81.18,0.63
Julio Mario Santo Domingo III.,Spain,Europe,M,32,345.62,22.3,119.07,5.18,144.66,412.26,126.14,231.28,0.43
Igor Kesaev,Germany,Europe,M,50,914.95,2.64,304.29,338.36,381.97,238.05,301.36,47.12,1.88
Li Wa,Germany,Europe,M,51,940.99,12.66,45.49,40.78,651.58,474.67,204.08,78.26,1.86
John Pritzker,United Kingdom,Europe,M,64,828.7,195.61,271.91,43.78,165.49,420.86,10.53,257.8,0.62
Alexander Spanos,Italy,Europe,M,93,2669.26,119.32,30.43,255.42,68.53,4624.66,1898.87,530.2,0.03
Aloysio de Andrade Faria,Spain,Europe,M,96,872.54,142.47,24.32,315.02,517.39,326.21,374.89,76.95,1.03
Qiu Jianping,Germany,Europe,M,55,1519.62,255.81,361.34,578.39,249.17,564.7,196.24,293.44,0.1
Denise York,Japan,Asia,M,66,1876.28,116.25,1014.69,180.47,525.02,929.04,60.46,827.62,1.11
Alexander Nesis,Brazil,Americas,F,54,1120.87,313.33,18.99,232.18,791.42,444.62,570.14,108.34,1.19
Fong Yun Wah,India,Asia,M,92,2026.28,886.65,2.59,193.8,122.13,1805.18,759.07,223.01,1.98
C. Dean Metropoulos,United Kingdom,Europe,M,71,169.78,86.41,0.66,141.53,36.13,129.1,94.42,128.04,1.59
Kuok Khoon Hong,Germany,Europe,M,67,1501.95,910.19,81,69.15,191.69,841.77,349.79,241.27,0.79
Shen Guojun,Italy,Europe,M,55,2107.21,1202.59,709.32,812.34,16.43,771.32,72.77,1331.63,0.38
Kazuo Okada,United Kingdom,Europe,M,74,1438.22,356.38,427.3,607.06,9.32,117.36,40.95,37.88,0.37
Sunil Vaswani,India,Asia,F,54,1704.06,121.38,463.6,538.87,37.34,1997.21,45.03,1408.68,0.62
Radhakishan Damani,Brazil,Americas,M,62,2376.87,91.49,102.2,439.56,225.87,2714.13,72.19,1123.88,0.31
Nick Caporella,Germany,Europe,M,81,528.45,80.71,21.81,16.01,120.77,362.57,12.6,60.12,0.71
Jiang Rensheng,Germany,Europe,M,63,833.99,544.4,42.87,467.03,234.13,603.9,282.23,776.1,0.01
Gerald Ford,China,Asia,M,73,1759.53,73.64,221.61,57.03,129.7,2186.99,123.57,782.33,3.54
Nicolas Puech,Japan,Asia,M,74,2482.03,384,782.7,813.52,1655.56,872.74,1725.66,298.38,2.44
Meg Whitman,Germany,Europe,M,61,1468.32,96.96,329.5,161.6,138.71,1179.09,156.61,279.85,1.09
Bernard Fraisse,China,Asia,M,61,140.26,6.57,79.41,5.79,1.25,81.17,33.2,0.14,0.59
Jeff Rothschild,United States,Americas,M,62,754.02,506.69,36.62,322.43,45.24,691.65,342.5,503.03,3.08
Scott Cook,Japan,Asia,M,65,2367.59,477.28,785.45,757.23,55.23,742.98,169.19,280.64,0.75
Song Zuowen,South Korea,Asia,M,70,2345.11,1303.74,169.17,260.73,7.64,2043.94,774.49,665.34,0.28
Qi Shi,United Kingdom,Europe,F,47,2189.93,525.95,834.81,316.44,457.8,1259.07,504.47,698.77,0.91
Liang Xinjun,Italy,Europe,M,49,1915.79,195.94,21.71,40.83,554.02,1382.4,63.38,214.77,0.94
Chu Mang Yee,South Korea,Asia,F,57,1833.48,221.11,559.73,610.28,76.45,1707.38,505.92,833.1,2.44
Feng Hailiang,United Kingdom,Europe,M,56,1326.49,676.39,168.44,40.88,355.99,798.71,280.38,433.42,0.12
Jerry Yang,Indonesia,Asia,F,48,2835.36,55.05,1365.92,1019.75,298.09,1401.72,596.12,704.26,4.81
Xu Jingren,Brazil,Americas,M,72,749.47,73.66,11.16,261.76,340.38,957.96,386.12,508.54,0.8
Noam Gottesman,South Korea,Asia,F,56,672.2,226.92,187.52,513.23,149.62,81.84,406.9,79.24,0.78
Bernard Lewis,Russia,Europe,M,91,545.53,89.76,375.63,47.06,71.81,66.79,81.84,22.97,0.71
Yuan Yafei,United States,Americas,M,53,572.38,6.86,86.55,151.49,90.86,349.38,105.56,4.2,2.99
Farhad Moshiri,Germany,Europe,M,62,2318.5,334.39,712.13,108.18,464.61,2601.47,1326.9,573.62,1.76
Michael Rubin,China,Asia,F,45,1789.41,296.24,143.16,76.64,121.59,2718.61,953.41,613.09,0.33
Lee Joong-Keun,Japan,Asia,M,76,386.54,61.18,120.42,32.59,276.01,317.83,364.99,55.68,0.82
Ted Turner,Hong Kong,Asia,M,78,63.44,3.74,7.35,1.55,8.01,86.26,34.26,9.12,0.08
Stanley Hubbard,Russia,Europe,F,84,2495.23,656.47,22.3,129.29,20.81,4355.5,1291.85,1396.39,0.89
Vadim Moshkovich,United Kingdom,Europe,M,50,2757.96,1242.97,1912.23,163.45,504.57,1397.36,2028.28,431.49,2.85
Mikail Shishkhanov,Singapore,Asia,F,45,371.43,55.64,3.77,131.92,155.52,307.82,279.25,1.55,2.44
Zhu Gongshan,Russia,Europe,M,59,1630.59,229.15,376.93,1097.98,285.06,174.95,327.27,205.71,0.51
Tang Yiu,China,Asia,F,83,392.31,30.39,189.67,47.45,67.65,186.39,44.26,84.83,0.15
Zhou Yaoting,Japan,Asia,F,74,2104.98,1571.24,15.1,1112.25,54.71,1418.6,147.81,1916.89,2.23
Sit Kwong Lam,United States,Americas,F,49,2678.19,483.81,47.33,139.02,499.93,2642.26,825.26,308.48,0.43
Sun Xishuang,Singapore,Asia,M,64,793.95,24.11,79.34,312.84,212.6,432.04,214.69,50.61,1.67
Fang Wei,Germany,Europe,M,44,1421.56,44.22,49.94,84.16,774.97,1387.12,468.09,449.73,1.02
Du Jiangtao,Brazil,Americas,M,47,275.41,19.65,124.36,6.65,102.76,143.39,56.68,62.49,2.22
Rakesh Jhunjhunwala,Singapore,Asia,F,57,980.58,168.6,198.28,507.89,132.14,396.14,203.82,218.43,0.22
Ren Zhengfei,United Kingdom,Europe,M,73,1381.59,307.08,248.07,266.63,341.13,349.06,114.8,14.64,0.92
Jeffrey Lorberbaum,Germany,Europe,F,62,1680.68,315.26,1478,39.32,580.68,478.56,966.7,243.81,0.62
Seo Jung-Jin,Singapore,Asia,M,59,2876.86,1584.19,303.03,366.89,149.4,1082.09,429.34,175.54,3.87
Ennio Doris,India,Asia,F,77,1114.55,226.37,89.79,67.62,268.3,576.51,82.11,30.53,1.41
Hans Georg Naeder,Singapore,Asia,M,56,1503.74,1309.89,287.39,36.53,50.35,448.84,289.17,339.16,0.92
Helena Revoredo,Germany,Europe,F,70,1377.87,161.11,114.54,58.73,65.44,1136.15,131.08,26.58,0.44
Xue Xiangdong,Hong Kong,Asia,F,58,2461.79,200.37,710.39,1840.96,886.74,1223.3,15.63,2381.88,2.48
Sze Man Bok,United Kingdom,Europe,M,67,752.18,143.97,90.41,87.42,339.52,477.32,289.19,96.53,0.74
Nikolai Buinov,Italy,Europe,F,50,2587.29,446.51,328.01,464.54,418.55,3097.03,348.02,1818.98,0.34
John Caudwell,United Kingdom,Europe,M,64,1249.38,129.89,713.73,454.45,59.67,341.4,38.17,410.41,1.18
Hui Lin Chit,Russia,Europe,M,64,301.93,33.2,49.85,135.45,14.95,292.62,155.82,67.77,0.56
Wu Jianshu,United States,Americas,F,53,1473.73,165.71,183.98,520.35,337,553.78,260.6,25.66,0.85
Stewart Rahr,Germany,Europe,M,71,1436.08,93.99,399.67,523.95,489.93,914,334.99,650.46,0
George Argyros,France,Europe,M,80,849.58,120.67,381.77,155.55,95.77,714.96,31.26,585.97,1.91
Jose Luis Cutrale,United Kingdom,Europe,M,70,2039.38,922.21,548.15,162.04,12.14,2277.87,123.5,1756.59,2.94
Daniel Pritzker,Russia,Europe,M,57,2731.2,546.28,3.77,19.86,23.01,4189.79,392.6,1658.38,0.54
John Fisher,Germany,Europe,M,56,471.34,14.31,324.24,14.92,91.17,512.95,272.29,213.06,0.89
Ron Baron,China,Asia,M,74,593.21,289.19,229.15,213.29,53.7,118.01,29.06,279.68,1.4
Joe Mansueto,Italy,Europe,M,61,60.38,3.17,2.88,1.71,11.1,116.34,29.24,45.42,0.15
Brad Kelley,Spain,Europe,M,60,1811.97,680.24,94.31,60.66,268.87,2127.39,680.75,737.32,1.42
Thomas Lee,United Kingdom,Europe,M,73,1266.74,81.69,32.35,81.85,825.67,1144.1,407.25,490.29,1.37
Dan Snyder,China,Asia,M,52,682.93,6.68,25.37,417.55,428.51,246.67,165.43,275.45,0.96
Joseph Grendys,Brazil,Americas,M,55,1050.16,441.85,515.75,327.05,355.34,102.36,677.02,14.63,0.55
Jiang Weiping,India,Asia,F,62,1443.57,129.03,579.8,103.75,196.81,1316.14,651.93,229.12,0.92
Zhang Li,Japan,Asia,M,64,421.4,8.5,270.86,108.87,115.65,144.59,154.12,72.31,0.64
Rakesh Gangwal,Russia,Europe,M,64,2372.27,444.4,959.23,395.08,130.83,3111.54,1958.78,709.57,0.45
Ding Shizhong,China,Asia,M,46,987.75,298.85,258.86,121.04,55.76,1179.66,85.93,834.83,5.66
Ding Shijia,United States,Americas,M,53,1574.18,47.46,94.68,1184.26,39.68,384.69,5.4,171.08,0.11
Daniel Mate,Brazil,Americas,M,54,140.23,14.01,6.07,87.38,0.22,183.74,75.58,72.71,2.92
Chen Bang,France,Europe,M,52,2407.76,757.73,2064.62,549.65,63.13,1728.57,874.6,1880.41,0.92
Mike Cannon-Brookes,China,Asia,F,37,701.76,261.31,3.9,64.48,377.54,724.06,83.94,645.29,0.29
Scott Farquhar,Spain,Europe,M,37,1970.61,1418.77,447.78,447.17,242.99,625.32,1197.29,11.78,2.35
Hedda im Brahm Droege,Germany,Europe,M,62,2277.06,134.94,13.41,225.9,1195.98,876.74,166.93,2.08,0.9
Gudrun Heine,India,Asia,M,62,977.31,273.24,128.18,77.44,248.73,964.45,88.59,625.15,0.99
Sybill Storz,South Korea,Asia,M,80,2905.25,108.23,195.98,58.97,355.88,3493.44,1286.15,20.81,0.29
Ni Zugen,India,Asia,M,60,865.81,51.85,152.44,141.37,166.49,1005.43,465.41,185.08,1.28
Chen Dongsheng,Germany,Europe,M,59,105.95,48.37,14.04,66.81,26.04,13.76,21.95,38.24,2.88
Murdaya Poo,Hong Kong,Asia,M,76,990.16,271.92,121.59,10.32,277.16,835.45,486.61,39.3,0.38
Mark Stevens,Germany,Europe,M,57,190.46,51.79,12.48,52,26.17,74.11,21.77,1.84,2.47
William Young,Italy,Europe,F,76,2580.16,77.59,223.45,71.01,862.45,1821.48,363.51,109.48,2.83
Xie Zhikun,Brazil,Americas,F,56,2473.48,3.27,1015.91,139.08,572.49,2845.36,1741.88,360.12,0.63
Sam Goi,France,Europe,M,68,935.94,99.48,896.21,34.95,302.72,302.04,620.23,77.16,2.06
Michael Hintze,India,Asia,M,64,854.39,125.8,54.05,83.85,344.66,643.06,12.61,383.11,1.31
Arturo Moreno,China,Asia,F,71,103.59,9.15,53.03,69.02,50.13,64.56,92.32,44.06,5.93
Lee Jay-Hyun,United States,Americas,M,57,1698.24,483.54,199.04,928.55,0.43,121.53,30.16,3.18,1.5
James Coulter,United States,Americas,M,57,2437.74,809.85,418.04,30.65,230.63,1149.02,50.43,149.54,0.5
Ong Beng Seng and Christina Ong,China,Asia,M,72,2871.46,127.89,198.78,132.99,524.87,2984.64,871.87,225.05,0.8
Gordon Getty,Singapore,Asia,F,83,1928.43,250.96,650.92,90.04,131.59,3558.73,1683.98,1068.15,1.69
Igor Makarov,France,Europe,F,55,2509.49,289.68,811.03,831.72,379.95,1571.64,508.84,864.7,0.99
Todd Christopher,Singapore,Asia,F,54,1123.82,268.46,156.8,134.21,1.15,853.43,107.78,181.59,0.87
Kiran Mazumdar-Shaw,Spain,Europe,M,64,1595.55,515.47,130.65,64.97,230.22,1574,57.58,861.3,0.87
Peter Lim,Germany,Europe,M,64,516.61,170.61,4.44,313.36,192.28,299.93,295.42,168.55,0.04
Christopher Hohn,China,Asia,F,50,2195.81,368.85,365.49,17.61,660.7,2623.21,970.79,868.98,0.28
Alec Gores,Russia,Europe,M,64,359.9,88.36,111.7,6.42,162.84,74.13,13.97,69.01,0.58
S. Daniel Abraham,India,Asia,F,93,303.15,26.87,0,24.9,14.93,358.95,49.93,72.07,0.5
Peter Peterson,Brazil,Americas,M,91,2485.65,54.08,201.56,739.17,1598.49,2437.45,1424.65,1119.56,0.9
Wu Zhigang,India,Asia,M,82,2418.56,1097.74,19.9,318.45,82.61,3406.28,2354.8,149.47,2.14
Edward Lampert,United Kingdom,Europe,M,55,1960.23,39.64,932.48,174.79,149.36,1165.57,56.36,443.89,1.36
Zhao Yan,United Kingdom,Europe,F,50,1452.71,543.69,4.57,98.18,275.09,596.95,3.48,61.83,0.47
Zhou Chengjian,Italy,Europe,M,52,825.28,185.36,12.09,84.41,543.28,857.3,439.59,416.23,1.35
Hongbin Sun,Russia,Europe,M,54,2487.51,646.88,717.15,454.02,498.75,1421.59,1022.83,226.87,1.18
Kei Hoi Pang,Hong Kong,Asia,M,51,1859.85,817.1,22.99,16.01,551.91,1801.33,227.89,1120.78,0.81
Mangal Prabhat Lodha,China,Asia,M,61,1331.79,16.63,380.54,278.48,82.21,1300.18,251.59,473.69,0.97
Li Sze Lim,Indonesia,Asia,F,60,705.3,57.49,313,96.94,209.78,786.43,99.43,656.13,2.78
Qin Yinglin,Brazil,Americas,M,52,1964.05,961.58,11.56,720,383.51,572.12,648.47,35.64,0.61
Horst Wortmann,Italy,Europe,M,76,230.37,71.45,18.09,41.96,30.74,106.66,25.74,11.23,1.58
Hubertus Benteler,Spain,Europe,M,70,2016.26,227.88,402.22,539.59,566.37,504.39,198.87,23,2.31
Robert Toennies,Russia,Europe,M,39,419.76,104.44,47.84,70.14,139.81,372.47,143.69,170.89,0.37
Wu Lanlan,France,Europe,M,43,2944.07,524.96,1179.45,169.28,1137.41,1912.69,1849.52,129.08,1.12
Tom Morris,Indonesia,Asia,F,62,73.19,51.07,5.22,15.12,15.22,44.92,16.49,40.98,0.9
Lam Kong,Singapore,Asia,F,53,2612.25,620.77,792.37,324.3,1194.07,475.28,649.63,142.77,2.15
Alexandre Grendene Bartelle,Indonesia,Asia,M,67,875.68,46.8,17.52,283.27,432.33,271.73,57.85,116.5,1.61
Bergit Douglas,France,Europe,M,70,991.11,76.65,392.68,11.5,291.4,536.84,36.03,277.67,4.26
Alfred Oetker,South Korea,Asia,F,50,2268.21,682.74,4.84,127.32,217.21,1742.84,314.37,189.52,2.85
August Oetker,France,Europe,M,73,2440.06,150.77,16.48,89.03,30.97,3998.26,712.58,1131.87,1
Carl Ferdinand Oetker,Spain,Europe,M,44,2920.7,1106.88,1578.88,344.75,130.88,857.13,994.92,98.54,4.36
Christian Oetker,South Korea,Asia,M,69,775.64,96.05,535.22,489.05,221.09,66.06,534.89,96.49,0.46
Julia Oetker,China,Asia,F,38,468.29,351.94,66.05,72.45,104.56,62.83,137.27,52.26,0
Richard Oetker,India,Asia,M,66,2521.48,406.79,51.25,459.83,1729.78,1679.22,1354.96,447.9,2.52
Rosely Schweizer,France,Europe,F,77,2043.82,1109.17,690.58,1350.56,704.88,586.43,915.72,1480.95,1.12
Larry Robbins,China,Asia,M,47,2252.39,106.17,635.55,69.29,673.65,2837.17,1128.39,940.36,0.69
Juan Abello,Italy,Europe,F,75,1144.22,173.63,335.85,745.7,259.21,504.91,657.18,211.28,6.61
Charles Simonyi,Russia,Europe,M,68,38.53,1.45,0.5,35.15,16.26,13.39,25.1,1.41,1.71
Peter Unger,United Kingdom,Europe,M,73,2491.15,41.07,1989.6,546.15,722.67,854.9,50.93,1612.1,0.21
Ronald Wanek,China,Asia,M,76,2545.31,1126.8,809.98,1508.26,235.74,1094.36,997.17,1232.2,0.46
Leena Tewari,France,Europe,M,60,1232.53,206.94,655.41,96.42,66.05,539.77,86.2,245.4,0.47
Luigi Rovati,Singapore,Asia,M,89,2284.5,1.2,562.84,1250.35,718,1942.97,416.37,1771.54,2.96
Li Zhongchu,China,Asia,M,54,2901.63,456.13,362.63,516.73,1111.82,2918.46,52.95,2410.71,0.48
Vincent Lo,South Korea,Asia,M,68,1012.46,4.9,168.33,106.12,636.46,483.04,306.05,79.3,1.06
Kavitark Ram Shriram,France,Europe,F,60,411.66,12.84,118.55,1.33,53.48,505.71,26.62,252.2,1.42
David Hains,United States,Americas,F,87,1852.96,574.1,550.34,33.59,284.09,1359.45,380.79,566.86,0.97
Bruce Karsh,United States,Americas,F,61,2173.97,57.2,1345.49,11.74,1309.12,111.71,636.07,24.84,0.39
Maritsa Lazari,India,Asia,M,72,954.71,2.41,184.64,3.87,245.28,735.73,0.86,214.85,1.52
James Clark,Japan,Asia,M,73,413.13,177.72,201.6,21.96,43.53,285.97,212.98,102.08,2.6
Glenn Dubin,United Kingdom,Europe,M,60,2004.42,360.13,697.99,562.6,252.95,1440.4,731.17,577.88,0.6
Osman Kibar,Germany,Europe,M,46,2608.06,638.79,960.38,1030.86,898.95,242,944.65,217.32,0.95
Eric Smidt,Italy,Europe,M,57,1555.7,176.4,172.93,197.22,125.99,1200.23,182.81,131.93,2.32
Georg von Opel,Italy,Europe,F,51,201.92,40.52,117.69,91.32,89.87,13.99,8.17,142.58,0.72
Frank Fertitta III.,Indonesia,Asia,M,55,109.28,9.08,22.6,1.51,19.49,149.03,89.73,1.35,1.34
Zheng Yuewen,Germany,Europe,F,55,2428.47,13.5,2199.86,502.6,657.49,372.56,427.75,889.32,0.47
Igor Altushkin,Germany,Europe,F,46,1446.93,606.67,12.29,165.3,7.44,973.61,173.35,144.21,0.83
Howard Marks,Indonesia,Asia,M,71,863.77,152.45,160.87,80.15,14.65,766.58,17.55,292.13,1.25
Phillip T. (Terry) Ragon,Japan,Asia,M,68,1355.49,280.28,621.02,181.3,597.14,790.46,422.93,691.34,0.44
Lorenzo Fertitta,Indonesia,Asia,F,48,2172.55,1118.6,1263.25,268.45,41.65,1782.03,850.41,1450.97,0.06
David Walentas,South Korea,Asia,F,79,2144.53,110,333.32,847.73,3.12,2987.81,701.54,1433.84,2.06
John Tyson,Japan,Asia,M,64,1606.79,505.8,976.02,268.27,5.59,344.65,55.28,438.19,0.07
Jonathan Nelson,South Korea,Asia,F,61,1260.97,471.36,18.93,227.65,303.23,678.24,6.45,431.24,0.75
Vincent Viola,China,Asia,M,61,775.86,85.91,255.88,224.27,87.48,225.28,93.69,8.41,0.85
W. Herbert Hunt,Singapore,Asia,F,88,1535.65,59.9,291.42,421.64,628.91,171.49,30.88,4.06,2.77
Danil Khachaturov,Singapore,Asia,M,45,632.39,140.88,414.03,267.63,88.22,121.29,27.45,371.88,0.33
James France,Brazil,Americas,M,72,2959.04,2070.71,422.05,527.43,1148.84,594.55,389.26,1414.81,0.47
Kevin Plank,United Kingdom,Europe,M,45,2499.27,565.75,979.02,191.71,400.61,3094.94,770.18,1960.73,1.84
Anne Beaufour,Brazil,Americas,F,54,318.81,209.28,4.11,9.03,23.31,169.9,18.33,77.38,1.12
Henri Beaufour,Spain,Europe,F,52,2030.06,117.36,230.47,504.56,119.16,2007.96,858.52,89.34,1.59
Tung Chee Chen,Hong Kong,Asia,M,75,2890.41,28.73,759.04,465.07,214.56,2379.65,81.5,869.35,5.78
Ren Jianhua,Spain,Europe,M,61,1757.82,33.28,286.51,142.73,304.8,1706.61,407.99,307.37,0.76
Abhay Firodia,Brazil,Americas,F,72,1935.51,7.31,433.25,383.12,523.4,2075.62,1268.5,218.05,0.64
Wong Man Li,France,Europe,M,52,1517.19,87.4,576.47,352.24,497.97,832.11,31.5,797.11,0.39
Lim Sung-Ki,France,Europe,M,77,1562.81,398.5,5.43,1.12,141.8,2027.62,974.2,35.8,1.65
Gilles Martin,Hong Kong,Asia,F,53,1192.15,330.6,184.83,301.79,257.33,679.39,207.85,353.93,0.02
Sunny Varkey,France,Europe,F,60,312.82,20.05,3.91,4.54,16.26,317.17,31.47,15.07,2.56
Francesco Gaetano Caltagirone,Singapore,Asia,M,74,1215.57,215.49,652.2,0.85,94.06,941.85,586.79,101.26,0.83
Lin Li,Russia,Europe,M,54,2334.56,1729.44,471.74,36.68,71.03,657.63,539.45,90.82,1.69
Eddie & Sol Zakay,United States,Americas,M,66,1837.94,239.65,422.88,146.06,74.67,3855.98,1699.77,1200.58,0.95
Chen Jianhua,Indonesia,Asia,M,46,2897.83,643.14,1110.48,595.97,319.25,2333.77,1943.12,160.79,0.88
Gu Yuhua,Singapore,Asia,M,67,1736.4,155.79,801.73,1025.51,12.04,425.31,17.8,665.35,0.83
Chu Lam Yiu,France,Europe,F,47,1749.8,146.05,377.83,945.91,649.17,170.81,354.55,185.2,0.21
Chase Coleman III.,Spain,Europe,F,42,2029.57,597.89,36.7,689.45,92.43,826.36,7.72,205.5,0.05
Choo Chong Ngen,Italy,Europe,M,64,653.5,377.36,254.54,260.37,39.42,197.83,195.22,280.18,0.61
Chen Hua,United States,Americas,F,51,539.95,341.21,41.12,4.51,74.36,629.66,469.84,79.54,1.52
Charles Zegar,United States,Americas,M,69,320.27,3.49,45.99,67.21,1.04,473.08,25.94,242.89,1.7
Drayton McLane Jr.,Germany,Europe,M,81,1176.09,933.79,152.14,136.99,31.61,392.94,343.26,126.87,1.26
Zhu Xingliang,Russia,Europe,M,58,1403.13,1195.44,227.29,293.42,196.72,429.19,172.79,765.95,0.19
Alexandra Daitch,France,Europe,M,54,248.86,21.01,14.34,84.56,112.34,213.53,20.55,172.56,3.81
Sarah MacMillan,United Kingdom,Europe,M,63,173.4,23.44,1.64,43.73,0.6,239.29,4.94,129.96,0.39
Lucy Stitzer,Russia,Europe,F,57,770.1,281.75,143.72,291.78,40.8,839.63,468.7,356.8,2.08
Katherine Tanner,Singapore,Asia,M,61,672.13,99.29,127.33,290.27,97.48,221.27,127.48,35.95,0.09
Theodore Rachmat,Germany,Europe,F,73,1139.07,596.2,138.36,144.41,185.01,851.19,330.45,445.53,0.1
Thomas Hagen,Germany,Europe,M,81,980.26,57,377.11,432.64,110.8,441.71,105.19,333.74,0.07
Or Wai Sheun,United States,Americas,M,66,949.33,61.12,49.05,176.55,56.88,1197.52,357.43,233.63,0.73
Huang Zhenda,Japan,Asia,F,70,1352.04,857.27,142.45,661.24,288.35,1103.78,705.77,994.09,1.19
Stanley Perron,France,Europe,M,94,2380.77,400.81,170.67,464.51,73.03,2004.16,600.43,131.3,0.67
Li Hejun,Russia,Europe,M,50,1377.68,521.35,163.66,45.95,11.5,2021.63,320.38,1065.83,0.21
Yi Zheng,India,Asia,F,46,1280.01,534.72,199.54,10.75,511.41,775.05,107.37,643.98,0.12
Alfredo Egydio Arruda Villela Filho,Hong Kong,Asia,M,47,413.77,75.15,96.32,54.04,94.66,419.63,181.22,143.22,1.59
Leslie Alexander,Spain,Europe,M,74,1567.81,156.48,173.6,63.6,366.34,1752.6,604.81,338.66,1.33
Jacques Saade,Japan,Asia,F,80,90.91,44.13,14.55,2.67,71.19,16.59,22.92,34.55,0.74
Wong Luen Hei,Singapore,Asia,M,55,555.54,139.17,180.76,7.05,68.5,472.04,230.84,79.85,1.3
Eric Lefkofsky,Italy,Europe,F,48,1822.48,1066.45,243.93,53.82,42.85,1767.77,93.4,1255.62,3.32
Christopher Cline,France,Europe,F,59,1303.73,21.83,96.31,276.76,631.54,411.91,109.8,24.02,0.81
Mochtar Riady,Hong Kong,Asia,M,88,1934.71,824.54,111.11,1035.92,816.49,564.16,784.67,632.77,0.06
Glen Taylor,Singapore,Asia,M,76,2131.75,1239.53,633.88,97.92,1139.53,529.9,1127.16,380.86,0.98
Shin Chang-Jae,Singapore,Asia,M,63,766.12,40.76,174.09,93.57,148.95,522.34,130.9,81.7,0.98
Wu Guangming,United Kingdom,Europe,M,55,81.88,59.45,15.41,10.05,30.53,55.38,18.49,69.39,1.05
Vladimir Bogdanov,South Korea,Asia,M,66,1577.33,312.88,1009.54,45.33,149.44,1143.4,918.75,163.02,1.49
Zhang Guiping,Singapore,Asia,M,66,2401.3,1225.45,318.55,70.15,1128,1555.1,997.45,897.8,0.7
Cai Dongqing,Italy,Europe,M,48,659.82,142.43,27.84,16.58,104.01,767.01,220.33,173.74,3.98
Andre Esteves,Japan,Asia,M,49,2277.78,74.99,1029.45,525.68,64.04,932.08,141.46,206.43,0.59
He Qiaonv,United States,Americas,M,51,1212.54,167.67,464.3,358.16,176.01,570.13,409.25,109.72,4.76
Jonathan Gray,India,Asia,F,47,697.63,181.37,88.66,14.42,168.92,825.41,27.07,554.04,0.05
Kerry Stokes,United Kingdom,Europe,M,76,657.96,143.04,41.26,175.26,84.26,755.06,260.99,279.9,0.03
Clement Fayat,United States,Americas,M,85,52.11,13.84,9.8,7.93,1.81,45.08,24.33,1.27,0.75
Elaine Wynn,Singapore,Asia,M,75,1053.62,955.99,92.6,49.06,317.41,377.34,295.43,442.69,0.67
Hong Ra-Hee,Singapore,Asia,F,72,463.34,36.54,22.4,155.37,122.59,257.79,123.75,5.3,2.31
Prajogo Pangestu,Hong Kong,Asia,M,73,257.02,5.19,54.82,101.58,93.42,99.32,71.41,25.58,0.32
Harsh Mariwala,Hong Kong,Asia,M,66,1271.14,186.05,851.08,417.71,7.21,180.98,172.2,198.82,0.88
Cho Tak Wong,Japan,Asia,F,71,2162.96,152.37,1163.01,280.02,904.42,491.97,66.47,761.11,1.26
T. Denny Sanford,Hong Kong,Asia,M,81,2357.72,1183.84,688.07,928.46,445.58,182.03,675.4,393.12,1.75
Geng Jianming,Russia,Europe,F,55,1303.86,39.49,451.06,1186.31,16.89,381.31,56.12,714.58,0.5
Jaime Botin,Russia,Europe,M,81,1104.53,413.68,395.43,328.64,17.18,212.11,162.63,97.3,2.58
Cai Wensheng,China,Asia,M,47,1866.82,96.07,18.77,925.7,1126.58,1174.46,808.46,660.65,5.65
Florentino Perez,Hong Kong,Asia,M,70,2989.88,752.42,1310.66,66.26,2165,1895.25,2425.07,772.25,2.39
David Gottesman,United Kingdom,Europe,F,91,2707.07,557.65,917.17,37.85,1889.96,2184.56,2624.6,255.02,0.5
Reed Hastings,France,Europe,M,56,709.72,240.52,94.97,212.93,48.07,434.72,124.21,197.14,0.13
Erich Kellerhals,France,Europe,M,78,149.62,8.63,12.95,41.69,46.45,140.67,26.74,69.28,4.74
Torsten Toeller,United States,Americas,M,51,1748.79,942.63,778.75,337.88,135.4,495.76,592.26,348.6,0.76
Manuel Jove,Russia,Europe,M,76,2717.38,512.94,800.12,624.55,217.04,689.02,63,62.53,0.76
Heloise Waislitz,China,Asia,M,54,1383.97,784.41,101.45,591.98,102.39,222.74,329.53,88.73,0.75
Christoph Henkel,Hong Kong,Asia,M,59,1984.31,267.81,21.02,987.04,33.26,1371.5,36.69,654.89,4.74
Dulce Pugliese de Godoy Bueno,Brazil,Americas,F,69,1499.42,72.56,20.64,38.99,56.37,2161.73,167.65,678.26,4.95
Arvind Tiku,France,Europe,M,47,700.96,70.28,133.52,405.56,8.43,332.06,2.15,245.49,1.24
Alexander Frolov,Brazil,Americas,M,53,2566.36,612.05,149.57,200.69,878.99,2122.47,1318.94,76.33,2.13
Sylvia Stroeher,United Kingdom,Europe,F,62,2302.92,285.39,422.1,1858.08,149.4,137.59,542.48,6.42,0.75
John Coates,Indonesia,Asia,M,47,1861.55,384.85,47.06,499.57,233.19,1849.52,265.54,883.84,3.25
Huang Hongyun,Hong Kong,Asia,M,51,1403.88,233.15,1169.11,107.65,144.51,831.85,310.12,771.28,0.99
Stephen Rubin,India,Asia,F,80,2145.15,94.49,99.53,399.79,1065.02,895.36,333.49,74.48,1.06
Sun Qinghuan,Indonesia,Asia,M,44,1563.67,431.69,29.51,1118.71,182.96,777.79,430.93,543.85,2.21
Mark Coombs,Indonesia,Asia,M,56,1448.18,71.49,864.91,435.7,584.24,789.4,564.19,728.81,4.57
Miao Shouliang,France,Europe,M,62,359.62,27.21,169.91,46.18,118.37,67.68,23.2,44.77,1.77
Richard Yuengling Jr.,Singapore,Asia,M,74,2486.9,219.62,213.87,805.3,14.83,3206.23,1385.9,586.95,0.09
Catherine Lozick,Spain,Europe,F,72,2684.81,87.57,1779.87,36.51,1337.05,1577.44,376.64,1755.97,1.01
Jennifer Pritzker,Japan,Asia,M,67,1365.21,451.58,160.08,119.92,157.99,1457.96,548.68,432.87,0.77
Xiong Xuqiang,Germany,Europe,M,61,1100.09,126.49,49.36,28.04,180.41,1101.54,277.03,108.22,0.5
Amy Wyss,Brazil,Americas,M,46,1815.66,169.51,376.77,356.72,103.78,1415.45,375.41,229.18,1.97
Jeffrey Lurie,South Korea,Asia,M,65,2682.87,1528.9,5.12,733.64,51.35,3238.03,1480.15,1390.21,3.82
Chen Dejun,Japan,Asia,F,47,2563.06,439.88,209.62,106.42,228.56,3469.03,1054.05,835.7,0.7
Nicolas Berggruen,Brazil,Americas,F,56,2216.9,51.77,837.61,1150.08,195.68,48.06,16.26,46.56,3.48
Julio Bozano,France,Europe,M,81,1496.37,441.22,634.74,103.33,252.57,526.37,387.25,73.24,1.37
N.R. Narayana Murthy,Spain,Europe,M,71,1337.32,148.89,619.28,394.78,662.65,1315.35,1174.31,626.68,2.65
J. Joe Ricketts,South Korea,Asia,M,76,1647.2,879.33,38.21,355.77,793.15,843.49,47.97,1214.47,0.33
Louis Bacon,Indonesia,Asia,M,61,1309.52,147.66,260.71,129.57,234.37,840.52,79.36,223.42,0.54
James Dinan,Italy,Europe,M,58,2533.65,291.1,193.52,384.46,2071.58,1586.73,893.03,1100.51,0.2
Jon Yarbrough,Russia,Europe,M,60,1223.59,36.56,702.77,546.74,27.08,468.53,310.29,244.15,3.66
Craig McCaw,United States,Americas,M,68,575.63,326.89,154.9,233.76,141.24,78.21,259.25,99.33,0.8
Linda Pritzker,Spain,Europe,M,63,1481.89,149.71,485.81,139.34,869.59,1450.62,673.37,936.9,2.92
Carlos Sanchez,South Korea,Asia,M,55,865.15,18.07,0.42,439.12,77.86,433.89,80.01,23.04,1.15
Chen Jinxia,India,Asia,M,49,55.07,7.52,44.24,8.56,7.45,29.35,35.69,5.52,0.83
Wang Changtian,Japan,Asia,M,52,517.63,25.05,38.88,146.97,41.31,634.95,360.14,8.45,0.94
Antony Ressler,Spain,Europe,M,55,2247.14,283.74,374,178.34,1059.34,1482.43,18.74,1111.64,0.33
Gerry Harvey,South Korea,Asia,F,77,887.71,16.95,21.09,77.04,157.95,873.42,0.17,256.3,2.25
An Kang,Italy,Europe,M,68,184.62,5.12,70.57,12.72,29.5,186.46,40.67,78.84,0.23
Gail Miller,Hong Kong,Asia,F,73,2423.8,986.17,111.94,1412.81,183.44,434.9,129.58,575.32,0.58
Mofatraj Munot,Russia,Europe,M,72,2201.25,126.75,1918.98,1051.81,685.76,1241.89,1754.46,1067.5,1.99
Wang Laichun,Japan,Asia,F,50,1775.49,297.64,629.25,393.29,364.22,958.21,482.61,382.65,1.86
Wang Laisheng,Germany,Europe,F,52,26.7,4.71,5.58,4.87,4.35,9.63,1.96,0.21,0.27
Kim Beom-Su,India,Asia,M,51,1346.85,344.66,1076.06,311.61,89.22,199.38,14.47,659.05,0.56
Yu Minhong,Spain,Europe,M,55,559.28,92,269.56,193.01,5.97,344.81,293.35,52.32,0.4
Daniel Roullier,Spain,Europe,M,80,2704.72,332.69,101.71,113.99,702.75,3648.17,840.02,1353.93,0.65
Harsh Goenka,United States,Americas,M,59,769.4,57.09,436.49,32.65,66.3,293.73,16.66,99.99,0.21
Xiao Yongming,United States,Americas,M,53,1823.91,631.62,190.14,177.15,8.74,2588.39,689.16,1080.16,2.81
Sandro Veronesi,Spain,Europe,M,57,2124.41,1864.91,230.7,687.04,4.67,1987.99,1230.56,1419.59,0.75
Chang Yun Chung,Indonesia,Asia,F,99,1326.23,222.29,53.14,185.63,257.89,1052.97,148.32,296.54,0.85
Masateru Uno,France,Europe,M,70,614.78,148.32,81.58,69.93,317.44,353.91,183.71,171.2,1.49
Jitendra Virwani,France,Europe,M,51,1097.68,297.94,97.08,86.59,306.75,467.22,36.6,121.22,0.07
Dieter Schnabel,Italy,Europe,M,71,1003.46,75.36,7.27,197.06,338.91,985.43,203.38,396.31,0.88
Koo Bon-Moo,United States,Americas,F,72,1695.58,931.73,97.84,265.99,90.17,588.28,125.9,149.24,3.29
Tor Peterson,China,Asia,F,53,1453.65,94.55,6.58,661.89,316.95,674.12,225.26,74.79,0.39
Aloke Lohia,India,Asia,M,58,612.43,3.94,110.74,132.24,18.96,436.03,27.82,59.67,2
